FunctionName Gophercon
Q
":method""GET"
":scheme""https"
":status""200"
":path""/channel/UCjnIy_GQAuszZurUIO3zg9Q"
"content-type""text/html; charset=utf-8"
"x-content-type-options""nosniff"
"cache-control""no-cache, no-store, max-age=0, must-revalidate"
"pragma""no-cache"
"expires""Mon, 01 Jan 1990 00:00:00 GMT"
"date""Fri, 05 Jan 2024 16:02:00 GMT"
"strict-transport-security""max-age=31536000"
"x-frame-options""SAMEORIGIN"
"cross-origin-opener-policy""same-origin-allow-popups; report-to="youtube_main""
"origin-trial""AvC9UlR6RDk2crliDsFl66RWLnTbHrDbp+DiY6AYz/PNQ4G4tdUTjrHYr2sghbkhGQAVxb7jaPTHpEVBz0uzQwkAAAB4eyJvcmlnaW4iOiJodHRwczovL3lvdXR1YmUuY29tOjQ0MyIsImZlYXR1cmUiOiJXZWJWaWV3WFJlcXVlc3RlZFdpdGhEZXByZWNhdGlvbiIsImV4cGlyeSI6MTcxOTUzMjc5OSwiaXNTdWJkb21haW4iOnRydWV9"
"permissions-policy""ch-ua-arch=*, ch-ua-bitness=*, ch-ua-full-version=*, ch-ua-full-version-list=*, ch-ua-model=*, ch-ua-wow64=*, ch-ua-form-factor=*, ch-ua-platform=*, ch-ua-platform-version=*"
"report-to""{"group":"youtube_main","max_age":2592000,"endpoints":[{"url":"https://csp.withgoogle.com/csp/report-to/youtube_main"}]}"
"p3p""CP="This is not a P3P policy! See http://support.google.com/accounts/answer/151657?hl=en for more info.""
"content-encoding""gzip"
"server""ESF"
"x-xss-protection""0"
"set-cookie""GPS=1; Domain=.youtube.com; Expires=Fri, 05-Jan-2024 16:32:00 GMT; Path=/; Secure; HttpOnly, YSC=bNkowcMRQkM; Domain=.youtube.com; Path=/; Secure; HttpOnly; SameSite=none, VISITOR_INFO1_LIVE=Q34c_3UA0tc; Domain=.youtube.com; Expires=Wed, 03-Jul-2024 16:02:00 GMT; Path=/; Secure; HttpOnly; SameSite=none, VISITOR_PRIVACY_METADATA=CgJVUxIEGgAgIw%3D%3D; Domain=.youtube.com; Expires=Wed, 03-Jul-2024 16:02:00 GMT; Path=/; Secure; HttpOnly; SameSite=lax"
"transfer-encoding""chunked"
P
":method""GET"
":scheme""https"
":path""/channel/UCjnIy_GQAuszZurUIO3zg9Q"
"user-agent""python-requests/2.31.0"
"accept-encoding""gzip, deflate"
"accept""*/*"
"connection""keep-alive"
Q
":method""GET"
":scheme""https"
":status""400"
":path""/golangtw"
"date""Fri, 05 Jan 2024 16:02:01 GMT"
"perf""7469935968"
"expiry""Tue, 31 Mar 1981 05:00:00 GMT"
"pragma""no-cache"
"server""tsa_p"
"set-cookie""guest_id_marketing=v1%3A170447052134836225; Max-Age=63072000; Expires=Sun, 04 Jan 2026 16:02:01 GMT; Path=/; Domain=.twitter.com; Secure; SameSite=None, guest_id_ads=v1%3A170447052134836225; Max-Age=63072000; Expires=Sun, 04 Jan 2026 16:02:01 GMT; Path=/; Domain=.twitter.com; Secure; SameSite=None, personalization_id="v1_2zT4x8BMv4KNXZspsr9rcg=="; Max-Age=63072000; Expires=Sun, 04 Jan 2026 16:02:01 GMT; Path=/; Domain=.twitter.com; Secure; SameSite=None, guest_id=v1%3A170447052134836225; Max-Age=63072000; Expires=Sun, 04 Jan 2026 16:02:01 GMT; Path=/; Domain=.twitter.com; Secure; SameSite=None, ct0=; Max-Age=-1704470520; Expires=Thu, 01 Jan 1970 00:00:01 GMT; Path=/; Domain=.twitter.com; Secure; SameSite=Lax"
"content-type""text/html; charset=utf-8"
"x-powered-by""Express"
"cache-control""no-cache, no-store, must-revalidate, pre-check=0, post-check=0"
"last-modified""Fri, 05 Jan 2024 16:02:01 GMT"
"x-frame-options""DENY"
"x-transaction-id""9fe9a3258419ea7e"
"x-xss-protection""0"
"x-content-type-options""nosniff"
"content-security-policy""connect-src 'self' blob: https://api.x.ai https://api.x.com https://*.pscp.tv https://*.video.pscp.tv https://*.twimg.com https://api.twitter.com https://api.x.com https://api-stream.twitter.com https://api-stream.x.com https://ads-api.twitter.com https://ads-api.x.com https://aa.twitter.com https://aa.x.com https://caps.twitter.com https://caps.x.com https://pay.twitter.com https://pay.x.com https://sentry.io https://ton.twitter.com https://ton.x.com https://ton-staging.atla.twitter.com https://ton-staging.atla.x.com https://ton-staging.pdxa.twitter.com https://ton-staging.pdxa.x.com https://twitter.com https://x.com https://upload.twitter.com https://upload.x.com https://www.google-analytics.com https://accounts.google.com/gsi/status https://accounts.google.com/gsi/log https://checkoutshopper-live.adyen.com wss://*.pscp.tv https://vmap.snappytv.com https://vmapstage.snappytv.com https://vmaprel.snappytv.com https://vmap.grabyo.com https://dhdsnappytv-vh.akamaihd.net https://pdhdsnappytv-vh.akamaihd.net https://mdhdsnappytv-vh.akamaihd.net https://mdhdsnappytv-vh.akamaihd.net https://mpdhdsnappytv-vh.akamaihd.net https://mmdhdsnappytv-vh.akamaihd.net https://mdhdsnappytv-vh.akamaihd.net https://mpdhdsnappytv-vh.akamaihd.net https://mmdhdsnappytv-vh.akamaihd.net https://dwo3ckksxlb0v.cloudfront.net https://media.riffsy.com https://*.giphy.com https://media.tenor.com https://c.tenor.com https://ads-twitter.com https://analytics.twitter.com https://analytics.x.com  ; default-src 'self'; form-action 'self' https://twitter.com https://*.twitter.com https://x.com https://*.x.com; font-src 'self' https://*.twimg.com; frame-src 'self' https://twitter.com https://x.com https://mobile.twitter.com https://mobile.x.com https://pay.twitter.com https://pay.x.com https://cards-frame.twitter.com https://accounts.google.com/ https://client-api.arkoselabs.com/ https://iframe.arkoselabs.com/ https://vaultjs.apideck.com/  https://recaptcha.net/recaptcha/ https://www.google.com/recaptcha/ https://www.gstatic.com/recaptcha/; img-src 'self' blob: data: https://*.cdn.twitter.com https://*.cdn.x.com https://ton.twitter.com https://ton.x.com https://*.twimg.com https://analytics.twitter.com https://analytics.x.com https://cm.g.doubleclick.net https://www.google-analytics.com https://maps.googleapis.com https://www.periscope.tv https://www.pscp.tv https://ads-twitter.com https://ads-api.twitter.com https://ads-api.x.com https://media.riffsy.com https://*.giphy.com https://media.tenor.com https://c.tenor.com https://*.pscp.tv https://*.periscope.tv https://prod-periscope-profile.s3-us-west-2.amazonaws.com https://platform-lookaside.fbsbx.com https://scontent.xx.fbcdn.net https://scontent-sea1-1.xx.fbcdn.net https://*.googleusercontent.com https://t.co/1/i/adsct; manifest-src 'self'; media-src 'self' blob: https://twitter.com https://x.com https://*.twimg.com https://*.vine.co https://*.pscp.tv https://*.video.pscp.tv https://dhdsnappytv-vh.akamaihd.net https://pdhdsnappytv-vh.akamaihd.net https://mdhdsnappytv-vh.akamaihd.net https://mdhdsnappytv-vh.akamaihd.net https://mpdhdsnappytv-vh.akamaihd.net https://mmdhdsnappytv-vh.akamaihd.net https://mdhdsnappytv-vh.akamaihd.net https://mpdhdsnappytv-vh.akamaihd.net https://mmdhdsnappytv-vh.akamaihd.net https://dwo3ckksxlb0v.cloudfront.net; object-src 'none'; script-src 'self' 'unsafe-inline' https://*.twimg.com https://recaptcha.net/recaptcha/ https://www.google.com/recaptcha/ https://www.gstatic.com/recaptcha/ https://client-api.arkoselabs.com/ https://www.google-analytics.com https://twitter.com https://x.com https://accounts.google.com/gsi/client https://appleid.cdn-apple.com/appleauth/static/jsapi/appleid/1/en_US/appleid.auth.js https://static.ads-twitter.com  'nonce-YjI4NzI0N2ItNGI0NS00ZTE1LWE4OTEtN2MxODRiOTU0ZjFi'; style-src 'self' 'unsafe-inline' https://accounts.google.com/gsi/style https://*.twimg.com; worker-src 'self' blob:; report-uri https://twitter.com/i/csp_report?a=O5RXE%3D%3D%3D&ro=false"
"strict-transport-security""max-age=631138519"
"cross-origin-opener-policy""same-origin-allow-popups"
"cross-origin-embedder-policy""unsafe-none"
"content-encoding""gzip"
"content-length""1001"
"x-response-time""17"
"x-connection-hash""1b949e35f3a816e8dbc9d70f873400375435cdd731b3e2f0e7badfc83af1f5d9"
P
":method""GET"
":scheme""https"
":path""/golangtw"
"user-agent""python-requests/2.31.0"
"accept-encoding""gzip, deflate"
"accept""*/*"
"connection""keep-alive"
Q
":method""GET"
":scheme""https"
":status""200"
":path""/GolangTaipeiGathering"
"vary""Accept-Encoding"
"content-encoding""gzip"
"set-cookie""sb=-SeYZSxPwVFJAfl-O6YeIaU_; expires=Sat, 08-Feb-2025 16:02:01 GMT; Max-Age=34560000; path=/; domain=.facebook.com; secure; httponly"
"accept-ch-lifetime""4838400"
"accept-ch""viewport-width,dpr,Sec-CH-Prefers-Color-Scheme,Sec-CH-UA-Full-Version-List,Sec-CH-UA-Platform-Version,Sec-CH-UA-Model"
"link""<https://www.facebook.com/GolangTaipeiGathering>; rel="canonical""
"reporting-endpoints""default="https://www.facebook.com/ajax/comet_error_reports/?device_level=unknown""
"report-to""{"max_age":259200,"endpoints":[{"url":"https://www.facebook.com/ajax/comet_error_reports/?device_level=unknown"}]}"
"content-security-policy-report-only""default-src data: blob: 'self' https://*.fbsbx.com 'unsafe-inline' *.facebook.com *.fbcdn.net 'unsafe-eval';script-src *.facebook.com *.fbcdn.net *.facebook.net *.google-analytics.com *.google.com 127.0.0.1:* 'unsafe-inline' blob: data: 'self' connect.facebook.net 'unsafe-eval';style-src fonts.googleapis.com *.fbcdn.net data: *.facebook.com 'unsafe-inline';connect-src *.facebook.com facebook.com *.fbcdn.net *.facebook.net wss://*.facebook.com:* wss://*.whatsapp.com:* wss://*.fbcdn.net attachment.fbsbx.com ws://localhost:* blob: *.cdninstagram.com 'self' http://localhost:3103 wss://gateway.facebook.com wss://edge-chat.facebook.com wss://snaptu-d.facebook.com wss://kaios-d.facebook.com/ v.whatsapp.net *.fbsbx.com *.fb.com https://api.mapbox.com https://*.tiles.mapbox.com;font-src data: *.gstatic.com *.facebook.com *.fbcdn.net *.fbsbx.com;img-src *.fbcdn.net *.facebook.com data: https://*.fbsbx.com *.tenor.co media.tenor.com facebook.com *.cdninstagram.com fbsbx.com fbcdn.net *.giphy.com connect.facebook.net *.carriersignal.info blob: android-webview-video-poster: googleads.g.doubleclick.net www.googleadservices.com *.whatsapp.net *.fb.com *.oculuscdn.com;media-src *.cdninstagram.com blob: *.fbcdn.net *.fbsbx.com www.facebook.com *.facebook.com https://*.giphy.com data:;frame-src *.doubleclick.net *.google.com *.facebook.com www.googleadservices.com *.fbsbx.com fbsbx.com data: www.instagram.com *.fbcdn.net https://paywithmybank.com https://sandbox.paywithmybank.com;worker-src *.facebook.com/static_resources/webworker_v1/init_script/ *.facebook.com/static_resources/webworker/init_script/ *.facebook.com/static_resources/sharedworker/init_script/ *.facebook.com/static_resources/webworker/map_libre/ *.facebook.com/static_resources/webworker/map_libre_rtl/ *.facebook.com/sw/ *.facebook.com/sw;block-all-mixed-content;report-uri https://www.facebook.com/csp/reporting/?minimize=0;"
"content-security-policy""default-src data: blob: 'self' https://*.fbsbx.com 'unsafe-inline' *.facebook.com *.fbcdn.net 'unsafe-eval';script-src *.facebook.com *.fbcdn.net *.facebook.net *.google-analytics.com *.google.com 127.0.0.1:* 'unsafe-inline' blob: data: 'self' connect.facebook.net 'unsafe-eval';style-src fonts.googleapis.com *.fbcdn.net data: *.facebook.com 'unsafe-inline';connect-src *.facebook.com facebook.com *.fbcdn.net *.facebook.net wss://*.facebook.com:* wss://*.whatsapp.com:* wss://*.fbcdn.net attachment.fbsbx.com ws://localhost:* blob: *.cdninstagram.com 'self' http://localhost:3103 wss://gateway.facebook.com wss://edge-chat.facebook.com wss://snaptu-d.facebook.com wss://kaios-d.facebook.com/ v.whatsapp.net *.fbsbx.com *.fb.com https://api.mapbox.com https://*.tiles.mapbox.com;font-src data: *.gstatic.com *.facebook.com *.fbcdn.net *.fbsbx.com;img-src *.fbcdn.net *.facebook.com data: https://*.fbsbx.com *.tenor.co media.tenor.com facebook.com *.cdninstagram.com fbsbx.com fbcdn.net *.giphy.com connect.facebook.net *.carriersignal.info blob: android-webview-video-poster: googleads.g.doubleclick.net www.googleadservices.com *.whatsapp.net *.fb.com *.oculuscdn.com;media-src *.cdninstagram.com blob: *.fbcdn.net *.fbsbx.com www.facebook.com *.facebook.com https://*.giphy.com data:;frame-src *.doubleclick.net *.google.com *.facebook.com www.googleadservices.com *.fbsbx.com fbsbx.com data: www.instagram.com *.fbcdn.net https://paywithmybank.com https://sandbox.paywithmybank.com;worker-src blob: *.facebook.com data:;block-all-mixed-content;upgrade-insecure-requests;"
"document-policy""force-load-at-top"
"permissions-policy-report-only""autoplay=(), clipboard-read=(), clipboard-write=(), encrypted-media=(), keyboard-map=()"
"permissions-policy""accelerometer=(), ambient-light-sensor=(), bluetooth=(), camera=(self), fullscreen=(self), gamepad=*, geolocation=(self), gyroscope=(), hid=(), idle-detection=(), local-fonts=(), magnetometer=(), microphone=(self), midi=(), otp-credentials=(), payment=(), picture-in-picture=(self), publickey-credentials-get=(self), screen-wake-lock=(), serial=(), usb=(), window-management=()"
"cross-origin-resource-policy""same-origin"
"cross-origin-opener-policy""same-origin-allow-popups"
"pragma""no-cache"
"cache-control""private, no-cache, no-store, must-revalidate"
"expires""Sat, 01 Jan 2000 00:00:00 GMT"
"x-content-type-options""nosniff"
"x-xss-protection""0"
"x-frame-options""DENY"
"strict-transport-security""max-age=15552000; preload"
"content-type""text/html; charset="utf-8""
"x-fb-debug""XT8NcTHfB+LXXQrjRr8EgT2gU1i5RX+ljvTc6eHmbApKsD9YpYNI8JUsHrTZWM8uTVmnA+74fnbVbTS59w6MCw=="
"date""Fri, 05 Jan 2024 16:02:01 GMT"
"alt-svc""h3=":443"; ma=86400"
"transfer-encoding""chunked"
"connection""keep-alive"
P
":method""GET"
":scheme""https"
":path""/GolangTaipeiGathering"
"user-agent""python-requests/2.31.0"
"accept-encoding""gzip, deflate"
"accept""*/*"
"connection""keep-alive"
Q
":method""GET"
":scheme""https"
":status""200"
":path""/C1YivAH9gLDNJCft7"
"content-type""text/html; charset=utf-8"
"x-frame-options""DENY"
"vary""Sec-Fetch-Dest, Sec-Fetch-Mode, Sec-Fetch-Site"
"x-auto-login""realm=com.google&args=service%3Dwise%26continue%3Dhttps://docs.google.com/forms/d/e/1FAIpQLScMaJbvvTXgBgW5qL3NfHzd8mC_8IZYBChlnbxTLc2JnDBYlw/viewform?usp%253Dsend_form"
"link""<https://www.google.com/intl/en-US/drive/>; rel="canonical""
"x-ua-compatible""IE=edge"
"cache-control""no-cache, no-store, max-age=0, must-revalidate"
"pragma""no-cache"
"expires""Mon, 01 Jan 1990 00:00:00 GMT"
"date""Fri, 05 Jan 2024 16:02:03 GMT"
"strict-transport-security""max-age=31536000; includeSubDomains"
"permissions-policy""ch-ua-arch=*, ch-ua-bitness=*, ch-ua-full-version=*, ch-ua-full-version-list=*, ch-ua-model=*, ch-ua-wow64=*, ch-ua-form-factor=*, ch-ua-platform=*, ch-ua-platform-version=*"
"accept-ch""Sec-CH-UA-Arch, Sec-CH-UA-Bitness, Sec-CH-UA-Full-Version, Sec-CH-UA-Full-Version-List, Sec-CH-UA-Model, Sec-CH-UA-WoW64, Sec-CH-UA-Form-Factor, Sec-CH-UA-Platform, Sec-CH-UA-Platform-Version"
"cross-origin-resource-policy""same-site"
"cross-origin-opener-policy-report-only""same-origin; report-to="AccountsSignInUi""
"report-to""{"group":"AccountsSignInUi","max_age":2592000,"endpoints":[{"url":"https://csp.withgoogle.com/csp/report-to/AccountsSignInUi"}]}"
"content-security-policy""require-trusted-types-for 'script';report-uri /v3/signin/_/AccountsSignInUi/cspreport, script-src 'nonce-qm7TaRFz_uSNIzQ_hgKj5g' 'unsafe-inline';object-src 'none';base-uri 'self';report-uri /v3/signin/_/AccountsSignInUi/cspreport;worker-src 'self'"
"content-encoding""gzip"
"server""ESF"
"x-xss-protection""0"
"x-content-type-options""nosniff"
"transfer-encoding""chunked"
P
":method""GET"
":scheme""https"
":path""/C1YivAH9gLDNJCft7"
"user-agent""python-requests/2.31.0"
"accept-encoding""gzip, deflate"
"accept""*/*"
"connection""keep-alive"
"cookie""NID=511=fy7HCfrjs7hfyu55t13FCivAtD2vqXgv8vQGwGqlYcoxotuJglPXxOO36QReQp0_fPtgGWAUcuhTaTNdwHSqrtUkBIG1dKffgNJ1xMZKj2B2953lqoaurR_kQaFCRP57zp_qUq5GWGNJ4laDcRRQXMkwLQLl_7eOwcZDkrzBamc; __Host-GAPS=1:OgCz5vfmUHWB2R073nP7QI5cuccG0g:bLygjtlVffND8uIh"
Q
":method""GET"
":scheme""https"
":status""200"
":path""/golangtaipei/"
"vary""Accept-Encoding"
"content-encoding""gzip"
"set-cookie""fr=0NAuN9hSS73h0VHuL..BlmCf7.1X.AAA.0.0.BlmCf7.AWUJsJXPmTQ; expires=Thu, 04-Apr-2024 16:02:03 GMT; Max-Age=7776000; path=/; domain=.facebook.com; secure; httponly, sb=-yeYZdA-mYn8GKePRdyP47qi; expires=Sat, 08-Feb-2025 16:02:03 GMT; Max-Age=34560000; path=/; domain=.facebook.com; secure; httponly"
"reporting-endpoints""default="https://www.facebook.com/ajax/browser_error_reports/?device_level=unknown""
"report-to""{"max_age":259200,"endpoints":[{"url":"https://www.facebook.com/ajax/browser_error_reports/?device_level=unknown"}]}"
"content-security-policy""default-src data: blob: 'self' https://*.fbsbx.com 'unsafe-inline' *.facebook.com *.fbcdn.net 'unsafe-eval';script-src *.facebook.com *.fbcdn.net *.facebook.net *.google-analytics.com *.google.com 127.0.0.1:* 'unsafe-inline' blob: data: 'self' connect.facebook.net 'unsafe-eval';style-src fonts.googleapis.com *.fbcdn.net data: *.facebook.com 'unsafe-inline';connect-src *.facebook.com facebook.com *.fbcdn.net *.facebook.net wss://*.facebook.com:* wss://*.whatsapp.com:* wss://*.fbcdn.net attachment.fbsbx.com ws://localhost:* blob: *.cdninstagram.com 'self' http://localhost:3103 wss://gateway.facebook.com wss://edge-chat.facebook.com wss://snaptu-d.facebook.com wss://kaios-d.facebook.com/ v.whatsapp.net *.fbsbx.com *.fb.com;font-src data: *.gstatic.com *.facebook.com *.fbcdn.net *.fbsbx.com;img-src *.fbcdn.net *.facebook.com data: https://*.fbsbx.com *.tenor.co media.tenor.com facebook.com *.cdninstagram.com fbsbx.com fbcdn.net *.giphy.com connect.facebook.net *.carriersignal.info blob: android-webview-video-poster: googleads.g.doubleclick.net www.googleadservices.com *.whatsapp.net *.fb.com *.oculuscdn.com;media-src *.cdninstagram.com blob: *.fbcdn.net *.fbsbx.com www.facebook.com *.facebook.com https://*.giphy.com data:;frame-src *.doubleclick.net *.google.com *.facebook.com www.googleadservices.com *.fbsbx.com fbsbx.com data: www.instagram.com *.fbcdn.net https://paywithmybank.com https://sandbox.paywithmybank.com;worker-src blob: *.facebook.com data:;block-all-mixed-content;upgrade-insecure-requests;"
"document-policy""force-load-at-top"
"permissions-policy-report-only""autoplay=(), clipboard-read=(), clipboard-write=(), encrypted-media=(), keyboard-map=()"
"permissions-policy""accelerometer=(), ambient-light-sensor=(), bluetooth=(), camera=(self), fullscreen=(self), gamepad=*, geolocation=(self), gyroscope=(), hid=(), idle-detection=(), local-fonts=(), magnetometer=(), microphone=(self), midi=(), otp-credentials=(), payment=(), picture-in-picture=(self), publickey-credentials-get=(self), screen-wake-lock=(), serial=(), usb=(), window-management=()"
"cross-origin-resource-policy""same-origin"
"cross-origin-opener-policy""unsafe-none"
"pragma""no-cache"
"cache-control""private, no-cache, no-store, must-revalidate"
"expires""Sat, 01 Jan 2000 00:00:00 GMT"
"x-content-type-options""nosniff"
"x-xss-protection""0"
"x-frame-options""DENY"
"strict-transport-security""max-age=15552000; preload"
"content-type""text/html; charset="utf-8""
"x-fb-debug""qwH3OG4vatMrz1LAtWwl2OoheQgeoNaXstGV5Wzyl6f5u7FXDEOp1CXaz84U4OHQfEZHTnFVAMDiJJZGORy64g=="
"date""Fri, 05 Jan 2024 16:02:03 GMT"
"alt-svc""h3=":443"; ma=86400"
"transfer-encoding""chunked"
"connection""keep-alive"
P
":method""GET"
":scheme""https"
":path""/golangtaipei/"
"user-agent""python-requests/2.31.0"
"accept-encoding""gzip, deflate"
"accept""*/*"
"connection""keep-alive"
"cookie""fr=0NAuN9hSS73h0VHuL..BlmCf7.oL.AAA.0.0.BlmCf7.AWWquua-mKo"
Q
":method""GET"
":scheme""https"
":status""200"
":path""/golangtw"
"server""nginx/1.18.0"
"date""Fri, 05 Jan 2024 16:02:04 GMT"
"content-type""text/html; charset=utf-8"
"content-length""4383"
"connection""keep-alive"
"set-cookie""stel_ssid=9ceb7c1e35f272dbb4_13671946275871855532; expires=Sat, 06 Jan 2024 16:02:04 GMT; path=/; samesite=None; secure; HttpOnly"
"pragma""no-cache"
"cache-control""no-store"
"x-frame-options""ALLOW-FROM https://web.telegram.org"
"content-security-policy""frame-ancestors https://web.telegram.org"
"content-encoding""gzip"
"strict-transport-security""max-age=35768000"
P
":method""GET"
":scheme""https"
":path""/golangtw"
"user-agent""python-requests/2.31.0"
"accept-encoding""gzip, deflate"
"accept""*/*"
"connection""keep-alive"
Q
":method""GET"
":scheme""https"
":status""200"
":path""/golangtw"
"server""GitHub.com"
"date""Fri, 05 Jan 2024 16:02:05 GMT"
"content-type""text/html; charset=utf-8"
"vary""X-Requested-With, X-PJAX-Container, Turbo-Frame, Turbo-Visit, Accept-Encoding, Accept, X-Requested-With"
"etag""W/"0f409f89b9ffdf571684c7f85b55c3dd""
"cache-control""max-age=0, private, must-revalidate"
"strict-transport-security""max-age=31536000; includeSubdomains; preload"
"x-frame-options""deny"
"x-content-type-options""nosniff"
"x-xss-protection""0"
"referrer-policy""origin-when-cross-origin, strict-origin-when-cross-origin"
"content-security-policy""default-src 'none'; base-uri 'self'; child-src github.com/assets-cdn/worker/ gist.github.com/assets-cdn/worker/; connect-src 'self' uploads.github.com www.githubstatus.com collector.github.com raw.githubusercontent.com api.github.com github-cloud.s3.amazonaws.com github-production-repository-file-5c1aeb.s3.amazonaws.com github-production-upload-manifest-file-7fdce7.s3.amazonaws.com github-production-user-asset-6210df.s3.amazonaws.com cdn.optimizely.com logx.optimizely.com/v1/events api.githubcopilot.com objects-origin.githubusercontent.com *.actions.githubusercontent.com wss://*.actions.githubusercontent.com productionresultssa0.blob.core.windows.net/ productionresultssa1.blob.core.windows.net/ productionresultssa2.blob.core.windows.net/ productionresultssa3.blob.core.windows.net/ productionresultssa4.blob.core.windows.net/ productionresultssa5.blob.core.windows.net/ productionresultssa6.blob.core.windows.net/ productionresultssa7.blob.core.windows.net/ productionresultssa8.blob.core.windows.net/ productionresultssa9.blob.core.windows.net/ github-production-repository-image-32fea6.s3.amazonaws.com github-production-release-asset-2e65be.s3.amazonaws.com insights.github.com wss://alive.github.com; font-src github.githubassets.com; form-action 'self' github.com gist.github.com objects-origin.githubusercontent.com; frame-ancestors 'none'; frame-src viewscreen.githubusercontent.com notebooks.githubusercontent.com support.github.com; img-src 'self' data: github.githubassets.com media.githubusercontent.com camo.githubusercontent.com identicons.github.com avatars.githubusercontent.com github-cloud.s3.amazonaws.com objects.githubusercontent.com secured-user-images.githubusercontent.com/ user-images.githubusercontent.com/ private-user-images.githubusercontent.com opengraph.githubassets.com github-production-user-asset-6210df.s3.amazonaws.com customer-stories-feed.github.com spotlights-feed.github.com objects-origin.githubusercontent.com *.githubusercontent.com; manifest-src 'self'; media-src github.com user-images.githubusercontent.com/ secured-user-images.githubusercontent.com/ private-user-images.githubusercontent.com github-production-user-asset-6210df.s3.amazonaws.com gist.github.com; script-src github.githubassets.com; style-src 'unsafe-inline' github.githubassets.com; upgrade-insecure-requests; worker-src github.com/assets-cdn/worker/ gist.github.com/assets-cdn/worker/"
"content-encoding""gzip"
"set-cookie""_gh_sess=kxZ1KvnmnoXv%2FddaiM63kGUY34vjyElLBPaVJ7ZTXE1VA%2BVdYb1ykeVTYE8%2Fovduifq1GC1loyvYpk%2FjBsn0Lf%2FiYX6oERjsXws7uVoJ%2BdeEZZrk%2BNQqXhzi9EbaIs9DSW5zBxgz95LEKcB8KHBvV7o2%2BDDsSin4sE%2FkFZg8weKc61u05UrT2t%2BrfmJv10uH2ZeQJNMc6gWrWXE6c5cqUzg8UQvD2hdmn3uE%2Blc4C5uGZJyedU6SkK3rD%2BoJE91U0c1eSUu9Xi2%2FtRY9F%2B9J7w%3D%3D--0UvIPwOTG09cFiXq--eUOmvRdKSYEtfs4QlzcxUQ%3D%3D; Path=/; HttpOnly; Secure; SameSite=Lax, _octo=GH1.1.1474302391.1704470524; Path=/; Domain=github.com; Expires=Sun, 05 Jan 2025 16:02:04 GMT; Secure; SameSite=Lax, logged_in=no; Path=/; Domain=github.com; Expires=Sun, 05 Jan 2025 16:02:04 GMT; HttpOnly; Secure; SameSite=Lax"
"accept-ranges""bytes"
"transfer-encoding""chunked"
"x-github-request-id""DBFC:0E14:4567921:4926C03:659827FC"
P
":method""GET"
":scheme""https"
":path""/golangtw"
"user-agent""python-requests/2.31.0"
"accept-encoding""gzip, deflate"
"accept""*/*"
"connection""keep-alive"
Q
":method""GET"
":scheme""https"
":status""200"
":path""/golang-taipei-meetup"
"connection""keep-alive"
"content-length""24244"
"content-encoding""gzip"
"content-type""text/html; charset=utf-8"
"etag""W/"ZUpcN77ZIwngTK-ZyYmbeRS4Y1317LWJ""
"x-ttl""86400.000"
"accept-ranges""bytes"
"age""0"
"date""Fri, 05 Jan 2024 16:02:06 GMT"
"x-cache""MISS, MISS"
"x-cache-hits""0, 0"
"vary""Accept-Encoding"
"x-geo""west"
"x-geo-gql-beta""east"
"set-cookie""SIFT_SESSION_ID=8cbaa913-19c0-4077-85f7-e1c8baa785ab; expires=Fri, 05 Jan 2024 20:02:06 GMT; path=/; domain=.meetup.com; SameSite=Strict; Secure"
"cache-control""no-cache, max-age=0"
"content-security-policy""base-uri 'self'; connect-src * blob: data: *.crazyegg.com ; default-src 'self' *.meetup.com *.dev.meetup.com:8001 www.sjwoe.com *.crazyegg.com blob: ; font-src * data:; frame-ancestors 'self'; frame-src *; img-src * data: blob: *.crazyegg.com ;media-src *.meetup.com *.dev.meetup.com:8001 https://secure.meetupstatic.com www.sjwoe.com *.sendbird.com https://sendbird-us-3.s3.amazonaws.com; script-src * 'unsafe-eval' 'unsafe-inline' *.crazyegg.com; style-src * 'unsafe-inline' *.crazyegg.com ; object-src 'none'"
"x-frame-options""SAMEORIGIN"
"x-xss-protection""1; mode=block"
"x-content-type-options""nosniff"
"strict-transport-security""max-age=7776000"
P
":method""GET"
":scheme""https"
":path""/golang-taipei-meetup"
"user-agent""python-requests/2.31.0"
"accept-encoding""gzip, deflate"
"accept""*/*"
"connection""keep-alive"
"cookie""MEETUP_BROWSER_ID=id=6d9606d2-9ca4-4bb0-a72f-b661643fa00a; MEETUP_TRACK=id=9ba9850b-dc9a-489c-bfb8-bb8de7d568e2"
