FunctionName Hlp
Q
":method""GET"
":scheme""https"
":status""200"
":path""/p/large-language-model-llm-ithome-3"
"date""Fri, 05 Jan 2024 16:02:06 GMT"
"content-type""text/html; charset=utf-8"
"transfer-encoding""chunked"
"connection""keep-alive"
"cf-ray""840cf1973b496c8e-SEA"
"cf-cache-status""MISS"
"cache-control""no-cache"
"content-encoding""gzip"
"etag""W/"2e39d-Q8qNVO4OAWVDxpFAEFy+2fIAVk4""
"link""<https://substackcdn.com>; rel=preconnect"
"set-cookie""ab_testing_id=%229ec38c69-f180-4da3-aec8-ed5920302682%22; Max-Age=31536000; Domain=substack.com; Path=/; Expires=Sat, 04 Jan 2025 16:02:06 GMT; HttpOnly; Secure; SameSite=Lax, __cf_bm=uAS8hy8rVC_5.6Su8gaBSRVv8nfe2enDFFlV3SWT9SM-1704470526-1-ARZcbZvOONeCaHC6WcJfaEqwlelTyi17g/OLVuIIPFslI+WWW6yQISnOO4rJe8t7+LIE2q5eL2SYqeyZtd6qeRQ=; path=/; expires=Fri, 05-Jan-24 16:32:06 GMT; domain=.substack.com; HttpOnly; Secure; SameSite=None"
"strict-transport-security""max-age=31536000"
"vary""Accept-Encoding"
"x-cluster""substack"
"x-deploy""ac3a682bfa"
"x-frame-options""sameorigin"
"x-powered-by""Express"
"x-served-by""Substack"
"x-sub""iamhlb"
"server""cloudflare"
"alt-svc""h3=":443"; ma=86400"
P
":method""GET"
":scheme""https"
":path""/p/large-language-model-llm-ithome-3"
"user-agent""python-requests/2.31.0"
"accept-encoding""gzip, deflate"
"accept""*/*"
"connection""keep-alive"
Q
":method""GET"
":scheme""https"
":status""200"
":path""/@iamhlb"
"date""Fri, 05 Jan 2024 16:02:07 GMT"
"content-type""text/html; charset=utf-8"
"transfer-encoding""chunked"
"connection""keep-alive"
"cf-ray""840cf19a4a25c630-SEA"
"cf-cache-status""MISS"
"cache-control""no-cache"
"content-encoding""gzip"
"etag""W/"19bc3-hwWuMKEUmZuN/+zJ051ulGixUTk""
"link""<https://substackcdn.com>; rel=preconnect"
"set-cookie""ab_testing_id=%2219ec3341-5cfc-4638-9255-3bc3160b2539%22; Max-Age=31536000; Domain=substack.com; Path=/; Expires=Sat, 04 Jan 2025 16:02:07 GMT; HttpOnly; Secure; SameSite=Lax, __cf_bm=zhKAlSEo_1NZaLWsHw1b485XYdjDz.9HrsKwfetk9MI-1704470527-1-AVd1OFNtPEyjL/Blr7r+xw4SQ0AL9wkxhRleV0PokItZrH7L/jLRLSPzxSA9S3D4lf3w1wDG4DX/ur3v9gWckZI=; path=/; expires=Fri, 05-Jan-24 16:32:07 GMT; domain=.substack.com; HttpOnly; Secure; SameSite=None"
"strict-transport-security""max-age=31536000"
"vary""Accept-Encoding"
"x-cluster""substack"
"x-deploy""ac3a682bfa"
"x-frame-options""sameorigin"
"x-powered-by""Express"
"x-served-by""Substack"
"server""cloudflare"
"alt-svc""h3=":443"; ma=86400"
P
":method""GET"
":scheme""https"
":path""/@iamhlb"
"user-agent""python-requests/2.31.0"
"accept-encoding""gzip, deflate"
"accept""*/*"
"connection""keep-alive"
Q
":method""GET"
":scheme""https"
":status""200"
":path"""
"date""Fri, 05 Jan 2024 16:02:07 GMT"
"content-type""text/html; charset=utf-8"
"transfer-encoding""chunked"
"connection""keep-alive"
"cf-ray""840cf19d3f01ebab-SEA"
"cf-cache-status""DYNAMIC"
"cache-control""no-cache"
"content-encoding""gzip"
"etag""W/"699ac-30IT1gdiJuJqmmrQdBop4+nukFk""
"set-cookie""ab_testing_id=%22c6be0019-4daa-4b22-9e21-0deb5188fac5%22; Max-Age=31536000; Domain=substack.com; Path=/; Expires=Sat, 04 Jan 2025 16:02:07 GMT; HttpOnly; Secure; SameSite=Lax, AWSALBTG=sAicRKBUyhMIFSFc5Kfut6afLz6H9e94WYXtPH7u2QazwudZ+sk3287IRMctwh0qOF4ZwANtAr0ZPy/U4512WdSckPDq5MK2RYkrOkLRoA4OC7aES8jVP6e5FlJdFeEa5wyUo8yG7owP1vghYQaV9gwFhDkFOhwqh8oAOCV3i/7f; Expires=Fri, 12 Jan 2024 16:02:07 GMT; Path=/, AWSALBTGCORS=sAicRKBUyhMIFSFc5Kfut6afLz6H9e94WYXtPH7u2QazwudZ+sk3287IRMctwh0qOF4ZwANtAr0ZPy/U4512WdSckPDq5MK2RYkrOkLRoA4OC7aES8jVP6e5FlJdFeEa5wyUo8yG7owP1vghYQaV9gwFhDkFOhwqh8oAOCV3i/7f; Expires=Fri, 12 Jan 2024 16:02:07 GMT; Path=/; SameSite=None; Secure, ajs_anonymous_id=%22aff52c1b-c8ab-44f8-8894-b04829b5c32c%22; Max-Age=31536000; Domain=substack.com; Path=/; Expires=Sat, 04 Jan 2025 16:02:07 GMT; SameSite=Strict, visit_id=%7B%22id%22%3A%22674a6f32-53fb-45eb-ad8f-17dbec71f78e%22%2C%22timestamp%22%3A%222024-01-05T16%3A02%3A07.614Z%22%7D; Max-Age=1800; Domain=substack.com; Path=/; Expires=Fri, 05 Jan 2024 16:32:07 GMT; HttpOnly; SameSite=Strict, __cf_bm=BOycw2CM.vcoGaXWWbqpc8tcq2rU9tO4ZBt9S18_7w8-1704470527-1-AUZGB8IMtpe4K2ZmYEcebcWsXN6OyjiTfWYjORkiNf2hyomHq5ahtrc3jAaf4n0A0QISiB70KQynK5eWTmW3W6E=; path=/; expires=Fri, 05-Jan-24 16:32:07 GMT; domain=.substack.com; HttpOnly; Secure; SameSite=None"
"strict-transport-security""max-age=31536000"
"vary""Accept-Encoding"
"x-cluster""substack"
"x-deploy""ac3a682bfa"
"x-frame-options""sameorigin"
"x-powered-by""Express"
"x-served-by""Substack"
"server""cloudflare"
"alt-svc""h3=":443"; ma=86400"
P
":method""GET"
":scheme""https"
":path"""
"user-agent""python-requests/2.31.0"
"accept-encoding""gzip, deflate"
"accept""*/*"
"connection""keep-alive"
Q
":method""GET"
":scheme""https"
":status""200"
":path""/p/random-note-june-19-5189cea9497b"
"date""Fri, 05 Jan 2024 16:02:08 GMT"
"content-type""text/html; charset=utf-8"
"transfer-encoding""chunked"
"connection""keep-alive"
"cf-ray""840cf1a02fad088d-SEA"
"cf-cache-status""HIT"
"cache-control""no-cache"
"content-encoding""gzip"
"etag""W/"182a2-4XfUxL2eij5c2HI38qWF8+2i+/A""
"link""<https://substackcdn.com>; rel=preconnect"
"set-cookie""ab_testing_id=%22279115a2-c606-4aca-aa6c-0f8c61f36adc%22; Max-Age=31536000; Domain=substack.com; Path=/; Expires=Sat, 04 Jan 2025 16:02:08 GMT; HttpOnly; Secure; SameSite=Lax, __cf_bm=6tx6oyscVbbwCi4bE1Zd4Jsvjb.bRjh3n7HlB2g_2Yo-1704470528-1-ATBaVsoj23BzDXTeb1sUQnX/fTTg4g4dx5IU31yOfiel4sAQXInS8WKypiK69ENO68kTLSQ+KZKAp9qR5MCcaxA=; path=/; expires=Fri, 05-Jan-24 16:32:08 GMT; domain=.substack.com; HttpOnly; Secure; SameSite=None"
"strict-transport-security""max-age=31536000"
"vary""Accept-Encoding"
"x-cluster""substack"
"x-deploy""ac3a682bfa"
"x-frame-options""sameorigin"
"x-powered-by""Express"
"x-served-by""Substack"
"x-sub""iamhlb"
"server""cloudflare"
"alt-svc""h3=":443"; ma=86400"
P
":method""GET"
":scheme""https"
":path""/p/random-note-june-19-5189cea9497b"
"user-agent""python-requests/2.31.0"
"accept-encoding""gzip, deflate"
"accept""*/*"
"connection""keep-alive"
Q
":method""GET"
":scheme""https"
":status""200"
":path""/p/d866a6dace53"
"date""Fri, 05 Jan 2024 16:02:08 GMT"
"content-type""text/html; charset=utf-8"
"transfer-encoding""chunked"
"connection""keep-alive"
"cf-ray""840cf1a21edaeb77-SEA"
"cf-cache-status""MISS"
"cache-control""no-cache"
"content-encoding""gzip"
"etag""W/"1a5ab-OztPKfdokZn2d16peYfbwQRSsq4""
"link""<https://substackcdn.com>; rel=preconnect"
"set-cookie""ab_testing_id=%22a1549499-2304-4821-9433-5871188f8e21%22; Max-Age=31536000; Domain=substack.com; Path=/; Expires=Sat, 04 Jan 2025 16:02:08 GMT; HttpOnly; Secure; SameSite=Lax, __cf_bm=FemVV.K.HQqYY2n2T4JI6GeBOXb7hFJ2ttN.scXHJ7Y-1704470528-1-AUvz2hiah366R/vE3TbmVTbIFEa9ZlBj5j0lCjT0t4Y9ruqK1A5KI3J53iEOvQZMUWDbwcq27yIOscdv0Td74GE=; path=/; expires=Fri, 05-Jan-24 16:32:08 GMT; domain=.substack.com; HttpOnly; Secure; SameSite=None"
"strict-transport-security""max-age=31536000"
"vary""Accept-Encoding"
"x-cluster""substack"
"x-deploy""ac3a682bfa"
"x-frame-options""sameorigin"
"x-powered-by""Express"
"x-served-by""Substack"
"x-sub""iamhlb"
"server""cloudflare"
"alt-svc""h3=":443"; ma=86400"
P
":method""GET"
":scheme""https"
":path""/p/d866a6dace53"
"user-agent""python-requests/2.31.0"
"accept-encoding""gzip, deflate"
"accept""*/*"
"connection""keep-alive"
Q
":method""GET"
":scheme""https"
":status""200"
":path""/signup"
"date""Fri, 05 Jan 2024 16:02:08 GMT"
"content-type""text/html; charset=utf-8"
"transfer-encoding""chunked"
"connection""keep-alive"
"cf-ray""840cf1a4bd55c386-SEA"
"cf-cache-status""DYNAMIC"
"cache-control""no-cache"
"content-encoding""gzip"
"etag""W/"57d94-UVYKLt8bqmBAKpGsZ2wQ5wMrres""
"set-cookie""ab_testing_id=%223ae3ba49-366a-46a9-80c7-c0387064d6eb%22; Max-Age=31536000; Domain=substack.com; Path=/; Expires=Sat, 04 Jan 2025 16:02:08 GMT; HttpOnly; Secure; SameSite=Lax, AWSALBTG=OrhBBGF7wRjF9sP9CRmWBJnWN/Ij9q8aiyrhYPcgzfD1f0/sx3U8dstRPlPQ4RYH93ED+MQnrvY7ih1G4MdCGzlcr/lRDIjRJaKp96VdIv2mI7OVWNpBmp5henn9f5RbZ9ywPTHX7L3J0vsPIL5ItyTLEfVoWjWeixQ6sAozTFb2; Expires=Fri, 12 Jan 2024 16:02:08 GMT; Path=/, AWSALBTGCORS=OrhBBGF7wRjF9sP9CRmWBJnWN/Ij9q8aiyrhYPcgzfD1f0/sx3U8dstRPlPQ4RYH93ED+MQnrvY7ih1G4MdCGzlcr/lRDIjRJaKp96VdIv2mI7OVWNpBmp5henn9f5RbZ9ywPTHX7L3J0vsPIL5ItyTLEfVoWjWeixQ6sAozTFb2; Expires=Fri, 12 Jan 2024 16:02:08 GMT; Path=/; SameSite=None; Secure, ajs_anonymous_id=%22bc44449e-ce42-4b6b-b7e2-ef14d63a96d4%22; Max-Age=31536000; Domain=substack.com; Path=/; Expires=Sat, 04 Jan 2025 16:02:08 GMT; SameSite=Strict, visit_id=%7B%22id%22%3A%220ecaf1fb-5d0a-4119-96fc-9731f3e4c867%22%2C%22timestamp%22%3A%222024-01-05T16%3A02%3A08.817Z%22%2C%22utm_source%22%3A%22substack%22%7D; Max-Age=1800; Domain=substack.com; Path=/; Expires=Fri, 05 Jan 2024 16:32:08 GMT; HttpOnly; SameSite=Strict, __cf_bm=Vbqi8dc8FdGkmmUJ4PJMSSz5d2JdRwlNTlZChqzQpJk-1704470528-1-AUdGDCdfl4/CvJ17M2KeWwLiwV6iVddiOIpScwjx4m58nVSgMskFVc1nI8zo1cl+Bfn0Ib9uhwtW4BN+m7Qdvjs=; path=/; expires=Fri, 05-Jan-24 16:32:08 GMT; domain=.substack.com; HttpOnly; Secure; SameSite=None"
"strict-transport-security""max-age=31536000"
"vary""Accept-Encoding"
"x-cluster""substack"
"x-deploy""ac3a682bfa"
"x-frame-options""sameorigin"
"x-powered-by""Express"
"x-served-by""Substack"
"server""cloudflare"
"alt-svc""h3=":443"; ma=86400"
P
":method""GET"
":scheme""https"
":path""/signup"
"user-agent""python-requests/2.31.0"
"accept-encoding""gzip, deflate"
"accept""*/*"
"connection""keep-alive"
Q
":method""GET"
":scheme""https"
":status""200"
":path""/app/app-store-redirect"
"date""Fri, 05 Jan 2024 16:02:09 GMT"
"content-type""text/html; charset=utf-8"
"transfer-encoding""chunked"
"connection""keep-alive"
"cf-ray""840cf1a73e03c612-SEA"
"cf-cache-status""DYNAMIC"
"cache-control""no-cache"
"content-encoding""gzip"
"etag""W/"a49e-Ft09SjBJaQ1yCRRqlV4CzN5jG9Q""
"set-cookie""AWSALBTG=EXEpiYA1ywvWE2QKztwOfSkSPws1ZP/W+XlArVs/fXJ58SYrofOe+bJltT3nw2Z9E+S4T0t/nONqU/D4fphifBHgZILiYnbe+FrwKn2rvzQTYe1CtO3r305PkWT2GDcc0BFgJn9kEWKni9RalgRdaJg+2bJpVBjFEwUNbGmAt0a3; Expires=Fri, 12 Jan 2024 16:02:09 GMT; Path=/, AWSALBTGCORS=EXEpiYA1ywvWE2QKztwOfSkSPws1ZP/W+XlArVs/fXJ58SYrofOe+bJltT3nw2Z9E+S4T0t/nONqU/D4fphifBHgZILiYnbe+FrwKn2rvzQTYe1CtO3r305PkWT2GDcc0BFgJn9kEWKni9RalgRdaJg+2bJpVBjFEwUNbGmAt0a3; Expires=Fri, 12 Jan 2024 16:02:09 GMT; Path=/; SameSite=None; Secure, ajs_anonymous_id=%22b395e46d-0eb7-464b-bfd8-85e3ac4cb296%22; Max-Age=31536000; Domain=substack.com; Path=/; Expires=Sat, 04 Jan 2025 16:02:09 GMT; SameSite=Strict, visit_id=%7B%22id%22%3A%221dce04be-a2e2-4344-863d-3b840cab1465%22%2C%22timestamp%22%3A%222024-01-05T16%3A02%3A09.101Z%22%7D; Max-Age=1800; Domain=substack.com; Path=/; Expires=Fri, 05 Jan 2024 16:32:09 GMT; HttpOnly; SameSite=Strict, ab_testing_id=%22facda319-1ad0-4ee2-91ff-4f8015eb436b%22; Max-Age=31536000; Domain=substack.com; Path=/; Expires=Sat, 04 Jan 2025 16:02:09 GMT; HttpOnly; Secure; SameSite=Lax"
"strict-transport-security""max-age=31536000"
"vary""Accept-Encoding"
"x-cluster""substack"
"x-deploy""ac3a682bfa"
"x-frame-options""sameorigin"
"x-powered-by""Express"
"x-served-by""Substack"
"server""cloudflare"
"alt-svc""h3=":443"; ma=86400"
P
":method""GET"
":scheme""https"
":path""/app/app-store-redirect"
"user-agent""python-requests/2.31.0"
"accept-encoding""gzip, deflate"
"accept""*/*"
"connection""keep-alive"
"cookie""ab_testing_id=%22facda319-1ad0-4ee2-91ff-4f8015eb436b%22; ajs_anonymous_id=%22b395e46d-0eb7-464b-bfd8-85e3ac4cb296%22; visit_id=%7B%22id%22%3A%221dce04be-a2e2-4344-863d-3b840cab1465%22%2C%22timestamp%22%3A%222024-01-05T16%3A02%3A09.101Z%22%7D; __cf_bm=hTeFvGT.ojt072a7hrDX5m3GGzrXnoyOhQd_Bk9EPHw-1704470529-1-AVyFP9BJKqYcOPMvYKtjQ3DMQjzyFWRRUebOCGqC2ndze8Q3aH+Ea1pRABjTVA3oMwPjO6nPAiRDfWSYTiS63Lc=; AWSALBTG=bvlYpkXr1NMjswG8yTjraDFRMf9e1evvg1g4tv1ORM6w8zPaBrG08YlNOCXb9Mg6CBguG0+L9fXJJtKwNrpOVBYMBH09RYutrP/JVdHkJKc6ot833bZonu9faPjruNusm4vxYpVl+boTZLThObBtfoKx7xqZ69JNYznZ8vuBZY+v; AWSALBTGCORS=bvlYpkXr1NMjswG8yTjraDFRMf9e1evvg1g4tv1ORM6w8zPaBrG08YlNOCXb9Mg6CBguG0+L9fXJJtKwNrpOVBYMBH09RYutrP/JVdHkJKc6ot833bZonu9faPjruNusm4vxYpVl+boTZLThObBtfoKx7xqZ69JNYznZ8vuBZY+v"
Q
":method""GET"
":scheme""https"
":status""200"
":path""/"
"date""Fri, 05 Jan 2024 16:02:09 GMT"
"content-type""text/html; charset=utf-8"
"transfer-encoding""chunked"
"connection""keep-alive"
"cf-ray""840cf1a8ed713069-SEA"
"cf-cache-status""MISS"
"cache-control""no-cache"
"content-encoding""gzip"
"etag""W/"4ef84-dKvLSvL39Ecef0wBxI0M9nMkntk""
"link""<https://substackcdn.com>; rel=preconnect"
"set-cookie""ab_testing_id=%229f24bb4c-aa16-4415-b411-9cc0b33031b4%22; Max-Age=31536000; Domain=substack.com; Path=/; Expires=Sat, 04 Jan 2025 16:02:09 GMT; HttpOnly; Secure; SameSite=Lax, __cf_bm=G473Q2cQdoBYTCs72JWDvz4Ey3sLMh9VE8LVhfStlH0-1704470529-1-AaRYli26SydPz6mQWrWDgoTxk6bFGwnsYMyBfATasjdXVdX4tx4pjZwvBVswVfNdybeQNGbZeg7lS9Waf+1HhMA=; path=/; expires=Fri, 05-Jan-24 16:32:09 GMT; domain=.substack.com; HttpOnly; Secure; SameSite=None"
"strict-transport-security""max-age=31536000"
"vary""Accept-Encoding"
"x-cluster""substack"
"x-deploy""ac3a682bfa"
"x-frame-options""sameorigin"
"x-powered-by""Express"
"x-served-by""Substack"
"x-sub""greatreset2022"
"server""cloudflare"
"alt-svc""h3=":443"; ma=86400"
P
":method""GET"
":scheme""https"
":path""/"
"user-agent""python-requests/2.31.0"
"accept-encoding""gzip, deflate"
"accept""*/*"
"connection""keep-alive"
Q
":method""GET"
":scheme""https"
":status""200"
":path""/p/large-language-model-llm-ithome-5"
"date""Fri, 05 Jan 2024 16:02:10 GMT"
"content-type""text/html; charset=utf-8"
"transfer-encoding""chunked"
"connection""keep-alive"
"cf-ray""840cf1abbb36ec1b-SEA"
"cf-cache-status""HIT"
"cache-control""no-cache"
"content-encoding""gzip"
"etag""W/"2dddf-72wO2K9HXkH2YytyNyd3GYllGE0""
"link""<https://substackcdn.com>; rel=preconnect"
"set-cookie""ab_testing_id=%226d96ee5b-4b1b-4215-875f-c7724aaf39d6%22; Max-Age=31536000; Domain=substack.com; Path=/; Expires=Sat, 04 Jan 2025 16:02:10 GMT; HttpOnly; Secure; SameSite=Lax, __cf_bm=3MIeMUkBPqvubBrP8wMNUKty4KAGVrJ3CqTVLtOEt9Y-1704470530-1-AQ0yc/k9ZBO+QFA+8UHpSV364+UKUc28/zNylhzhTPzXJUSBmZyraaUyQDfsFXIE/kaVkf0G7cFPXn5CTr/tkOo=; path=/; expires=Fri, 05-Jan-24 16:32:10 GMT; domain=.substack.com; HttpOnly; Secure; SameSite=None"
"strict-transport-security""max-age=31536000"
"vary""Accept-Encoding"
"x-cluster""substack"
"x-deploy""ac3a682bfa"
"x-frame-options""sameorigin"
"x-powered-by""Express"
"x-served-by""Substack"
"x-sub""iamhlb"
"server""cloudflare"
"alt-svc""h3=":443"; ma=86400"
P
":method""GET"
":scheme""https"
":path""/p/large-language-model-llm-ithome-5"
"user-agent""python-requests/2.31.0"
"accept-encoding""gzip, deflate"
"accept""*/*"
"connection""keep-alive"
Q
":method""GET"
":scheme""https"
":status""200"
":path""/p/random-note-on-june-29-2023"
"date""Fri, 05 Jan 2024 16:02:10 GMT"
"content-type""text/html; charset=utf-8"
"transfer-encoding""chunked"
"connection""keep-alive"
"cf-ray""840cf1ad5905275a-SEA"
"cf-cache-status""HIT"
"cache-control""no-cache"
"content-encoding""gzip"
"etag""W/"1f829-FXGsrDTfir6xMPkjozmcwf9qtMY""
"link""<https://substackcdn.com>; rel=preconnect"
"set-cookie""ab_testing_id=%2221691895-5fb1-4824-aa6b-87e0e23d82a0%22; Max-Age=31536000; Domain=substack.com; Path=/; Expires=Sat, 04 Jan 2025 16:02:10 GMT; HttpOnly; Secure; SameSite=Lax, __cf_bm=4EZZ.9IcJt8LmZFiITda7U4CQ9qAR9apwNmYoNqfMo8-1704470530-1-AeaQyVitwEBzngWrmXPt5MGsNy7jYs0+6Q0o/gziUuz7x+3v7Z6vhWLT++XHXy5j09VJdR+KlUy+t8zEntVAI1k=; path=/; expires=Fri, 05-Jan-24 16:32:10 GMT; domain=.substack.com; HttpOnly; Secure; SameSite=None"
"strict-transport-security""max-age=31536000"
"vary""Accept-Encoding"
"x-cluster""substack"
"x-deploy""ac3a682bfa"
"x-frame-options""sameorigin"
"x-powered-by""Express"
"x-served-by""Substack"
"x-sub""iamhlb"
"server""cloudflare"
"alt-svc""h3=":443"; ma=86400"
P
":method""GET"
":scheme""https"
":path""/p/random-note-on-june-29-2023"
"user-agent""python-requests/2.31.0"
"accept-encoding""gzip, deflate"
"accept""*/*"
"connection""keep-alive"
Q
":method""GET"
":scheme""https"
":status""200"
":path""/p/large-language-model-llm-ithome-1"
"date""Fri, 05 Jan 2024 16:02:10 GMT"
"content-type""text/html; charset=utf-8"
"transfer-encoding""chunked"
"connection""keep-alive"
"cf-ray""840cf1aeddf3c4bb-SEA"
"cf-cache-status""MISS"
"cache-control""no-cache"
"content-encoding""gzip"
"etag""W/"3423d-0XvwVRWutdxrqVB5Jt5s1I9UZVg""
"link""<https://substackcdn.com>; rel=preconnect"
"set-cookie""ab_testing_id=%221a96a388-c766-49e2-8264-f3a4f3a3fa8e%22; Max-Age=31536000; Domain=substack.com; Path=/; Expires=Sat, 04 Jan 2025 16:02:10 GMT; HttpOnly; Secure; SameSite=Lax, __cf_bm=uyegAPinh41XfK8vqrz0m3bjWHGuJ.yePo1vx5Xg9vo-1704470530-1-Afe7otERMu1oEHvA6lsv8TKDIRGQhfbuF9qdo0dN1GMBIwkABMFYqs9Myo8orkqb53MNLGUhQ+hgXB03pPYDUSk=; path=/; expires=Fri, 05-Jan-24 16:32:10 GMT; domain=.substack.com; HttpOnly; Secure; SameSite=None"
"strict-transport-security""max-age=31536000"
"vary""Accept-Encoding"
"x-cluster""substack"
"x-deploy""ac3a682bfa"
"x-frame-options""sameorigin"
"x-powered-by""Express"
"x-served-by""Substack"
"x-sub""iamhlb"
"server""cloudflare"
"alt-svc""h3=":443"; ma=86400"
P
":method""GET"
":scheme""https"
":path""/p/large-language-model-llm-ithome-1"
"user-agent""python-requests/2.31.0"
"accept-encoding""gzip, deflate"
"accept""*/*"
"connection""keep-alive"
Q
":method""GET"
":scheme""https"
":status""200"
":path""/"
"date""Fri, 05 Jan 2024 16:02:10 GMT"
"content-type""text/html; charset=utf-8"
"transfer-encoding""chunked"
"connection""keep-alive"
"cf-ray""840cf1b1baa0c6ed-SEA"
"cf-cache-status""HIT"
"cache-control""no-cache"
"link""<https://substackcdn.com>; rel=preconnect"
"set-cookie""ab_testing_id=%2200a1a88c-70bd-4ac5-86d1-930869359488%22; Max-Age=31536000; Domain=www.lennysnewsletter.com; Path=/; Expires=Sat, 04 Jan 2025 16:02:10 GMT; HttpOnly; Secure; SameSite=Lax, __cf_bm=GtIMbH2hzMSV_0F_jsyAjqMEO2TtJVticvGASGlTEYc-1704470530-1-AcXGugoWzQyaa1TzkD4SyRDGqV1flMb9Cl2UGc8UikCLuUX+Q4ydoWCGvxnF/IQfRq1eGuNj5aK56AcQ3ALYuw8=; path=/; expires=Fri, 05-Jan-24 16:32:10 GMT; domain=.www.lennysnewsletter.com; HttpOnly; Secure; SameSite=None"
"strict-transport-security""max-age=31536000"
"vary""Accept-Encoding"
"x-cluster""substack"
"x-deploy""ac3a682bfa"
"x-frame-options""sameorigin"
"x-powered-by""Express"
"x-served-by""Substack"
"x-sub""lenny"
"server""cloudflare"
"content-encoding""gzip"
"alt-svc""h3=":443"; ma=86400"
P
":method""GET"
":scheme""https"
":path""/"
"user-agent""python-requests/2.31.0"
"accept-encoding""gzip, deflate"
"accept""*/*"
"connection""keep-alive"
Q
":method""GET"
":scheme""https"
":status""200"
":path""/"
"server""nginx"
"date""Fri, 05 Jan 2024 16:02:12 GMT"
"content-type""text/html; charset=UTF-8"
"transfer-encoding""chunked"
"connection""keep-alive"
"strict-transport-security""max-age=31536000; includeSubdomains; preload"
"content-encoding""gzip"
P
":method""GET"
":scheme""https"
":path""/"
"user-agent""python-requests/2.31.0"
"accept-encoding""gzip, deflate"
"accept""*/*"
"connection""keep-alive"
Q
":method""GET"
":scheme""https"
":status""200"
":path""/p/large-language-model-llm-ithome-2/comments"
"date""Fri, 05 Jan 2024 16:02:12 GMT"
"content-type""text/html; charset=utf-8"
"transfer-encoding""chunked"
"connection""keep-alive"
"cf-ray""840cf1ba694c3090-SEA"
"cf-cache-status""HIT"
"cache-control""no-cache"
"content-encoding""gzip"
"etag""W/"1a26f-G2PmVF8uhxdVk7FNRFPgjrUKhwg""
"link""<https://substackcdn.com>; rel=preconnect"
"set-cookie""ab_testing_id=%22f0524fd9-605f-4277-a424-6110aca48887%22; Max-Age=31536000; Domain=substack.com; Path=/; Expires=Sat, 04 Jan 2025 16:02:12 GMT; HttpOnly; Secure; SameSite=Lax, __cf_bm=WE0Z0Q2C6IsZ48M7PCwx.NdzZhjlnMQdpnz822euA1c-1704470532-1-ASh0q/vCPIm2imjC2bFe1ZmP9YNzYb21z98dkweR4saaeUgIDBmDr70Jbneacj8FA0HaMZqhbT9XIfgznwt0wao=; path=/; expires=Fri, 05-Jan-24 16:32:12 GMT; domain=.substack.com; HttpOnly; Secure; SameSite=None"
"strict-transport-security""max-age=31536000"
"vary""Accept-Encoding"
"x-cluster""substack"
"x-deploy""ac3a682bfa"
"x-frame-options""sameorigin"
"x-powered-by""Express"
"x-served-by""Substack"
"x-sub""iamhlb"
"server""cloudflare"
"alt-svc""h3=":443"; ma=86400"
P
":method""GET"
":scheme""https"
":path""/p/large-language-model-llm-ithome-2/comments"
"user-agent""python-requests/2.31.0"
"accept-encoding""gzip, deflate"
"accept""*/*"
"connection""keep-alive"
Q
":method""GET"
":scheme""https"
":status""200"
":path""/p/refined-reflections-on-openai-dev/comments"
"date""Fri, 05 Jan 2024 16:02:12 GMT"
"content-type""text/html; charset=utf-8"
"transfer-encoding""chunked"
"connection""keep-alive"
"cf-ray""840cf1bc0fb7eb97-SEA"
"cf-cache-status""MISS"
"cache-control""no-cache"
"content-encoding""gzip"
"etag""W/"15768-XrhN0DxfoZAVhVFKJg77B3kbhmU""
"link""<https://substackcdn.com>; rel=preconnect"
"set-cookie""ab_testing_id=%2233eddea4-f28e-43d0-ac38-5c493800e6d5%22; Max-Age=31536000; Domain=substack.com; Path=/; Expires=Sat, 04 Jan 2025 16:02:12 GMT; HttpOnly; Secure; SameSite=Lax, __cf_bm=xvl0ay_lbSMtOHc.ORoHgH1OESj45BcRAQKzUOtv4AM-1704470532-1-AbgWqtaj/Hg4BuAnMUQZlwNaguaqicPmziFSPNBVmploznEMRWlNgFhPPUCmiauGMLDusLGEiHn/P6p8Tq9e6Cw=; path=/; expires=Fri, 05-Jan-24 16:32:12 GMT; domain=.substack.com; HttpOnly; Secure; SameSite=None"
"strict-transport-security""max-age=31536000"
"vary""Accept-Encoding"
"x-cluster""substack"
"x-deploy""ac3a682bfa"
"x-frame-options""sameorigin"
"x-powered-by""Express"
"x-served-by""Substack"
"x-sub""iamhlb"
"server""cloudflare"
"alt-svc""h3=":443"; ma=86400"
P
":method""GET"
":scheme""https"
":path""/p/refined-reflections-on-openai-dev/comments"
"user-agent""python-requests/2.31.0"
"accept-encoding""gzip, deflate"
"accept""*/*"
"connection""keep-alive"
Q
":method""GET"
":scheme""https"
":status""200"
":path""/"
"date""Fri, 05 Jan 2024 16:02:12 GMT"
"content-type""text/html; charset=utf-8"
"transfer-encoding""chunked"
"connection""keep-alive"
"cf-ray""840cf1be093d307e-SEA"
"cf-cache-status""HIT"
"cache-control""no-cache"
"link""<https://substackcdn.com>; rel=preconnect"
"set-cookie""ab_testing_id=%2273eb0c27-ab74-4396-8509-5c1380f50b47%22; Max-Age=31536000; Domain=hardcopy.cafe; Path=/; Expires=Sat, 04 Jan 2025 16:02:12 GMT; HttpOnly; Secure; SameSite=Lax, __cf_bm=tDY71V0zh83qA6zOhWdgwbDFGfCzg7mwiYSBCKucMdM-1704470532-1-AaW37Qdj7zbFA3jh8Uq679RY38SsUtYKkn9qFmxgr6xtvrw0mZZHkc81edtKc9T8Znu7yBpvpa8ZjBNVrRUr1Yg=; path=/; expires=Fri, 05-Jan-24 16:32:12 GMT; domain=.hardcopy.cafe; HttpOnly; Secure; SameSite=None"
"strict-transport-security""max-age=31536000"
"vary""Accept-Encoding"
"x-cluster""substack"
"x-deploy""ac3a682bfa"
"x-frame-options""sameorigin"
"x-powered-by""Express"
"x-served-by""Substack"
"x-sub""hardcopy"
"server""cloudflare"
"content-encoding""gzip"
"alt-svc""h3=":443"; ma=86400"
P
":method""GET"
":scheme""https"
":path""/"
"user-agent""python-requests/2.31.0"
"accept-encoding""gzip, deflate"
"accept""*/*"
"connection""keep-alive"
Q
":method""GET"
":scheme""https"
":status""200"
":path""/tos"
"date""Fri, 05 Jan 2024 16:02:13 GMT"
"content-type""text/html; charset=utf-8"
"transfer-encoding""chunked"
"connection""keep-alive"
"cf-ray""840cf1bf8fabeb83-SEA"
"cf-cache-status""DYNAMIC"
"cache-control""no-cache"
"content-encoding""gzip"
"etag""W/"53d54-dik3b5UQ8xr0/DMfAzsr0xsDpc4""
"set-cookie""ab_testing_id=%22f7b80e3d-b8b4-4985-adec-9ee64c054139%22; Max-Age=31536000; Domain=substack.com; Path=/; Expires=Sat, 04 Jan 2025 16:02:13 GMT; HttpOnly; Secure; SameSite=Lax, AWSALBTG=ENNmObaltfJbpnxaJziW6fLI4psI5vmC/vokmRHx8Zber4GjCgRIVIZACiA7xWKcSHPfCLzTues1DWiY6ZwKE6HIsBugJHoKpxc6kWEeVUy3gFeZ1FStrkY3oeS9tOR3Wq7n181+HdpvgucY+3qJcbkNN5JsAnRN500/ZjlorWjI; Expires=Fri, 12 Jan 2024 16:02:13 GMT; Path=/, AWSALBTGCORS=ENNmObaltfJbpnxaJziW6fLI4psI5vmC/vokmRHx8Zber4GjCgRIVIZACiA7xWKcSHPfCLzTues1DWiY6ZwKE6HIsBugJHoKpxc6kWEeVUy3gFeZ1FStrkY3oeS9tOR3Wq7n181+HdpvgucY+3qJcbkNN5JsAnRN500/ZjlorWjI; Expires=Fri, 12 Jan 2024 16:02:13 GMT; Path=/; SameSite=None; Secure, ajs_anonymous_id=%22c0e0edcc-1b11-4f03-8139-3489b0483421%22; Max-Age=31536000; Domain=substack.com; Path=/; Expires=Sat, 04 Jan 2025 16:02:13 GMT; SameSite=Strict, visit_id=%7B%22id%22%3A%22fd64bc27-768e-437d-8888-87c7b52e38e8%22%2C%22timestamp%22%3A%222024-01-05T16%3A02%3A13.109Z%22%7D; Max-Age=1800; Domain=substack.com; Path=/; Expires=Fri, 05 Jan 2024 16:32:13 GMT; HttpOnly; SameSite=Strict, __cf_bm=vUZAc_NH3hAyjy3GJiZ00zrkiDlfIGLC4I6yFk.ihiI-1704470533-1-ARNOK+Jlox4CnQFirJCH55BrspoAYC9i1GjDC8yWMYSLaromqKpwfBv08va9L9Kp6najJEj7+3aEsLWwzgfF+3I=; path=/; expires=Fri, 05-Jan-24 16:32:13 GMT; domain=.substack.com; HttpOnly; Secure; SameSite=None"
"strict-transport-security""max-age=31536000"
"vary""Accept-Encoding"
"x-cluster""substack"
"x-deploy""ac3a682bfa"
"x-frame-options""sameorigin"
"x-powered-by""Express"
"x-served-by""Substack"
"server""cloudflare"
"alt-svc""h3=":443"; ma=86400"
P
":method""GET"
":scheme""https"
":path""/tos"
"user-agent""python-requests/2.31.0"
"accept-encoding""gzip, deflate"
"accept""*/*"
"connection""keep-alive"
Q
":method""GET"
":scheme""https"
":status""200"
":path""/ccpa"
"date""Fri, 05 Jan 2024 16:02:13 GMT"
"content-type""text/html; charset=utf-8"
"transfer-encoding""chunked"
"connection""keep-alive"
"cf-ray""840cf1c17cb7c4d7-SEA"
"cf-cache-status""DYNAMIC"
"cache-control""no-cache"
"content-encoding""gzip"
"etag""W/"53140-nP8PdhsD3ZHFV+6hmTayCMyB/VQ""
"set-cookie""ab_testing_id=%22542b4f2f-02cf-4699-8127-f8ff561198c6%22; Max-Age=31536000; Domain=substack.com; Path=/; Expires=Sat, 04 Jan 2025 16:02:13 GMT; HttpOnly; Secure; SameSite=Lax, AWSALBTG=Gxo5H5hibA99iVZa8xaWdCkSwFRJXMJknhc65MumvxIVnay9y2Up48z2m2gvAI0pteb6FMztAPnKn6xp+NvLf+DWpfc4FhZfOPoxtduKHenK08/a5oRTgD6Php1OZZG8YROGLTTJCJQyj7rjxFj1Z89Mlx+X8G2jTnX5F4TXOzH0; Expires=Fri, 12 Jan 2024 16:02:13 GMT; Path=/, AWSALBTGCORS=Gxo5H5hibA99iVZa8xaWdCkSwFRJXMJknhc65MumvxIVnay9y2Up48z2m2gvAI0pteb6FMztAPnKn6xp+NvLf+DWpfc4FhZfOPoxtduKHenK08/a5oRTgD6Php1OZZG8YROGLTTJCJQyj7rjxFj1Z89Mlx+X8G2jTnX5F4TXOzH0; Expires=Fri, 12 Jan 2024 16:02:13 GMT; Path=/; SameSite=None; Secure, ajs_anonymous_id=%2219406757-ffa8-4b5e-a2ce-7f31216a4cf4%22; Max-Age=31536000; Domain=substack.com; Path=/; Expires=Sat, 04 Jan 2025 16:02:13 GMT; SameSite=Strict, visit_id=%7B%22id%22%3A%221a8f8b08-a7c1-4f41-8637-6aa98077536f%22%2C%22timestamp%22%3A%222024-01-05T16%3A02%3A13.419Z%22%7D; Max-Age=1800; Domain=substack.com; Path=/; Expires=Fri, 05 Jan 2024 16:32:13 GMT; HttpOnly; SameSite=Strict, __cf_bm=M9RkdsnRqH_j2FRr7R_Vqa2akwMB1SHwfu3FEOzIbcw-1704470533-1-AfUTXLzZFEF/jOnaN5xxiBrfihy0/nz0JvS+xSj5zv9y58uYUmY93es41kZQP1dQotoFXAYCCbh0hq/3OgCAAMA=; path=/; expires=Fri, 05-Jan-24 16:32:13 GMT; domain=.substack.com; HttpOnly; Secure; SameSite=None"
"strict-transport-security""max-age=31536000"
"vary""Accept-Encoding"
"x-cluster""substack"
"x-deploy""ac3a682bfa"
"x-frame-options""sameorigin"
"x-powered-by""Express"
"x-served-by""Substack"
"server""cloudflare"
"alt-svc""h3=":443"; ma=86400"
P
":method""GET"
":scheme""https"
":path""/ccpa"
"user-agent""python-requests/2.31.0"
"accept-encoding""gzip, deflate"
"accept""*/*"
"connection""keep-alive"
Q
":method""GET"
":scheme""https"
":status""200"
":path""/p/large-language-model-llm-ithome-4/comments"
"date""Fri, 05 Jan 2024 16:02:13 GMT"
"content-type""text/html; charset=utf-8"
"transfer-encoding""chunked"
"connection""keep-alive"
"cf-ray""840cf1c3e97ac678-SEA"
"cf-cache-status""HIT"
"cache-control""no-cache"
"content-encoding""gzip"
"etag""W/"19971-niYlEInxvC2c5IdbM5YLnjZb9kA""
"link""<https://substackcdn.com>; rel=preconnect"
"set-cookie""ab_testing_id=%224d13de10-7bf7-4076-a864-36c7c8ca0ca8%22; Max-Age=31536000; Domain=substack.com; Path=/; Expires=Sat, 04 Jan 2025 16:02:13 GMT; HttpOnly; Secure; SameSite=Lax, __cf_bm=4sjFK_ZXJg5fuyaGQqFDuo3LH2MMwmT2TdQcEcZ2PTc-1704470533-1-Aeu6pJWHCfp61jaNc198CDmKCO6FQUgJkxzyp1JBs12N+HRk+p9EIxEyTM97o85WtXmMvCxRIMf0hlNRKDOsrWw=; path=/; expires=Fri, 05-Jan-24 16:32:13 GMT; domain=.substack.com; HttpOnly; Secure; SameSite=None"
"strict-transport-security""max-age=31536000"
"vary""Accept-Encoding"
"x-cluster""substack"
"x-deploy""ac3a682bfa"
"x-frame-options""sameorigin"
"x-powered-by""Express"
"x-served-by""Substack"
"x-sub""iamhlb"
"server""cloudflare"
"alt-svc""h3=":443"; ma=86400"
P
":method""GET"
":scheme""https"
":path""/p/large-language-model-llm-ithome-4/comments"
"user-agent""python-requests/2.31.0"
"accept-encoding""gzip, deflate"
"accept""*/*"
"connection""keep-alive"
Q
":method""GET"
":scheme""https"
":status""200"
":path""/"
"date""Fri, 05 Jan 2024 16:02:14 GMT"
"content-type""text/html; charset=utf-8"
"transfer-encoding""chunked"
"connection""keep-alive"
"cf-ray""840cf1c6ea5bc38a-SEA"
"cf-cache-status""DYNAMIC"
"cache-control""public,max-age=31536000,immutable"
"expires""0"
"last-modified""Thu, 04 Jan 2024 19:32:42 GMT"
"set-cookie""AWSALBTG=h3W7d6uSkdwuqgMROh/DiSgkkTY8yd1vgdv2eMOwgd5k4EdpSkREmQ2g4ZIO2LeDL5FlS2Jutnwa9cqb5wL6/4Lz69txz3iCuezrwCvjvkow1U2aKVkyfNHfY787GodgbGcYo13PXdH8HyPiEOXRxfCyUQABqGBAXIBELf/9tmgx; Expires=Fri, 12 Jan 2024 16:02:14 GMT; Path=/, AWSALBTGCORS=h3W7d6uSkdwuqgMROh/DiSgkkTY8yd1vgdv2eMOwgd5k4EdpSkREmQ2g4ZIO2LeDL5FlS2Jutnwa9cqb5wL6/4Lz69txz3iCuezrwCvjvkow1U2aKVkyfNHfY787GodgbGcYo13PXdH8HyPiEOXRxfCyUQABqGBAXIBELf/9tmgx; Expires=Fri, 12 Jan 2024 16:02:14 GMT; Path=/; SameSite=None; Secure, notion_browser_id=b48cc8fb-483d-470f-94cb-964ee68ba697; Domain=notion.site; Path=/; Expires=Sat, 04 Jan 2025 16:02:14 GMT; Secure, notion_check_cookie_consent=false; Domain=notion.site; Path=/; Expires=Sat, 06 Jan 2024 16:02:14 GMT; Secure, notion_locale=en-US%2Fautodetect; Domain=notion.site; Path=/; Expires=Sat, 04 Jan 2025 16:02:14 GMT; Secure, NEXT_LOCALE=en-US; Domain=notion.site; Path=/; Expires=Sat, 04 Jan 2025 16:02:14 GMT; Secure, __cf_bm=KHZbHdUlr.RmgjI1ZPc2f4eemy1dg11MWFUC1oovFIE-1704470534-1-AY6L9owMTQ1nH6wJkaFImVRv4c8CpxNG3DU8xnFRf6AQYQ+FDGwXqmruTw4zlrGm71J5ZXZOuZU2tvDjJhD5jG0=; path=/; expires=Fri, 05-Jan-24 16:32:14 GMT; domain=.notion.site; HttpOnly; Secure; SameSite=None"
"strict-transport-security""max-age=31536000; includeSubDomains; preload"
"vary""Accept-Encoding"
"document-policy""js-profiling"
"origin-trial""Ak0hZZ1qkZrWdy7N5BYiS9a2hLiGbyfVsL6JZzJSN4yX9t+NA688C/h6Suz2U+RqP8p0GGKqzlocZl5eoc8J+A4AAABzeyJvcmlnaW4iOiJodHRwczovL25vdGlvbi5zbzo0NDMiLCJmZWF0dXJlIjoiVW5yZXN0cmljdGVkU2hhcmVkQXJyYXlCdWZmZXIiLCJleHBpcnkiOjE3MDk4NTU5OTksImlzU3ViZG9tYWluIjp0cnVlfQ=="
"pragma""no-cache"
"referrer-policy""strict-origin-when-cross-origin"
"surrogate-control""no-store"
"x-amz-id-2""Fn2gZlbDjdV52+Jw79B8sbuWuKNenNEag3NaJbJUNKI8w0jqZOLj86Y1PQDNNSkcSlxCIZYxSKQ="
"x-amz-request-id""SQ5D8QMGKRHE3P83"
"x-amz-server-side-encryption""AES256"
"x-content-type-options""nosniff"
"x-dns-prefetch-control""off"
"x-download-options""noopen"
"x-frame-options""SAMEORIGIN"
"x-notion-request-id""00fb2491-4b5f-4eee-8777-ec4ced388fe6"
"x-permitted-cross-domain-policies""none"
"x-xss-protection""0"
"report-to""{"endpoints":[{"url":"https://a.nel.cloudflare.com/report/v3?s=SOQpl5vP6G8C%2Fpuw9b2dyX9KGU%2Fo%2FmMeyBdrHasxOZ6vCxfGez0UWwb7eJPxyIIw%2BvQJ0dy7U99zw3887gVQkaabsCuvp1kUp2vUJtHlw%2FXh%2B%2B683xQ8fBs%3D"}],"group":"cf-nel","max_age":604800}"
"nel""{"success_fraction":0,"report_to":"cf-nel","max_age":604800}"
"server""cloudflare"
"content-encoding""gzip"
"alt-svc""h3=":443"; ma=86400"
P
":method""GET"
":scheme""https"
":path""/"
"user-agent""python-requests/2.31.0"
"accept-encoding""gzip, deflate"
"accept""*/*"
"connection""keep-alive"
Q
":method""GET"
":scheme""https"
":status""200"
":path""/p/large-language-model-llm-ithome-3/comments"
"date""Fri, 05 Jan 2024 16:02:14 GMT"
"content-type""text/html; charset=utf-8"
"transfer-encoding""chunked"
"connection""keep-alive"
"cf-ray""840cf1c92fb46824-SEA"
"cf-cache-status""HIT"
"cache-control""no-cache"
"content-encoding""gzip"
"etag""W/"1c892-QNI9EMipk2v+ZTrX1GrQrNG7KQY""
"link""<https://substackcdn.com>; rel=preconnect"
"set-cookie""ab_testing_id=%22816c7475-2bd3-499c-beac-c336ddff6bba%22; Max-Age=31536000; Domain=substack.com; Path=/; Expires=Sat, 04 Jan 2025 16:02:14 GMT; HttpOnly; Secure; SameSite=Lax, __cf_bm=f4L2LoVPCY7a7P2ktGdB0VnEC02MJdlf5ssI4X.dUSo-1704470534-1-ASjYkwkp8jdnk/rlOpWVu2XJ4k1lkEjF9bwiy9/TYA/Xv56CwG3NfUgwKFcvWF5tO/Z4r6p66WZ5e7Y3qOdwpyA=; path=/; expires=Fri, 05-Jan-24 16:32:14 GMT; domain=.substack.com; HttpOnly; Secure; SameSite=None"
"strict-transport-security""max-age=31536000"
"vary""Accept-Encoding"
"x-cluster""substack"
"x-deploy""ac3a682bfa"
"x-frame-options""sameorigin"
"x-powered-by""Express"
"x-served-by""Substack"
"x-sub""iamhlb"
"server""cloudflare"
"alt-svc""h3=":443"; ma=86400"
P
":method""GET"
":scheme""https"
":path""/p/large-language-model-llm-ithome-3/comments"
"user-agent""python-requests/2.31.0"
"accept-encoding""gzip, deflate"
"accept""*/*"
"connection""keep-alive"
Q
":method""GET"
":scheme""https"
":status""200"
":path""/privacy"
"date""Fri, 05 Jan 2024 16:02:15 GMT"
"content-type""text/html; charset=utf-8"
"transfer-encoding""chunked"
"connection""keep-alive"
"cf-ray""840cf1cd2e1e30a4-SEA"
"cf-cache-status""DYNAMIC"
"cache-control""no-cache"
"content-encoding""gzip"
"etag""W/"545b2-QSZxxYMiO/8bCy6k6ihrOlq1WUU""
"set-cookie""AWSALBTG=0qZf5JkAzuRsz7K/VevqxvAjwbkTpSXSLcuXcGfGuBGx8BoAt0Jn8wJv2W3SWeZgezAbYYHsB3P/faRMMOwrzN4GvUixFn8ug2BFnWzWIvwbNmKlXpfqv0uDzHosMWd01/YSlIxRbQvUlvrn+y0NGvsocFOvO4BkoaSx6lNsmVuB; Expires=Fri, 12 Jan 2024 16:02:15 GMT; Path=/, AWSALBTGCORS=0qZf5JkAzuRsz7K/VevqxvAjwbkTpSXSLcuXcGfGuBGx8BoAt0Jn8wJv2W3SWeZgezAbYYHsB3P/faRMMOwrzN4GvUixFn8ug2BFnWzWIvwbNmKlXpfqv0uDzHosMWd01/YSlIxRbQvUlvrn+y0NGvsocFOvO4BkoaSx6lNsmVuB; Expires=Fri, 12 Jan 2024 16:02:15 GMT; Path=/; SameSite=None; Secure, ajs_anonymous_id=%220a3bcf3f-4224-4151-af8a-9ac405f9174a%22; Max-Age=31536000; Domain=substack.com; Path=/; Expires=Sat, 04 Jan 2025 16:02:15 GMT; SameSite=Strict, visit_id=%7B%22id%22%3A%2295ccf5ac-378a-4cc2-b9ea-5fb65ffc62f6%22%2C%22timestamp%22%3A%222024-01-05T16%3A02%3A14.970Z%22%7D; Max-Age=1800; Domain=substack.com; Path=/; Expires=Fri, 05 Jan 2024 16:32:15 GMT; HttpOnly; SameSite=Strict, ab_testing_id=%224ef29420-80f7-44a7-9631-67f5926fa2c1%22; Max-Age=31536000; Domain=substack.com; Path=/; Expires=Sat, 04 Jan 2025 16:02:15 GMT; HttpOnly; Secure; SameSite=Lax"
"strict-transport-security""max-age=31536000"
"vary""Accept-Encoding"
"x-cluster""substack"
"x-deploy""ac3a682bfa"
"x-frame-options""sameorigin"
"x-powered-by""Express"
"x-served-by""Substack"
"server""cloudflare"
"alt-svc""h3=":443"; ma=86400"
P
":method""GET"
":scheme""https"
":path""/privacy"
"user-agent""python-requests/2.31.0"
"accept-encoding""gzip, deflate"
"accept""*/*"
"connection""keep-alive"
"cookie""ab_testing_id=%224ef29420-80f7-44a7-9631-67f5926fa2c1%22; ajs_anonymous_id=%220a3bcf3f-4224-4151-af8a-9ac405f9174a%22; visit_id=%7B%22id%22%3A%2295ccf5ac-378a-4cc2-b9ea-5fb65ffc62f6%22%2C%22timestamp%22%3A%222024-01-05T16%3A02%3A14.970Z%22%7D; __cf_bm=2dfMhXwkIU16h8OyOxz6LYYpWCx5U4OpCs8LZK859Uk-1704470535-1-AfeVA+9YMT5CIDNC7ked05UkKzB+9Zb7pnFKQvoeLk+5YaKJbWBpNxW+izwLpl3dfAhjzvhkoIxND/gg7hA1mG4="
Q
":method""GET"
":scheme""https"
":status""200"
":path""/p/ai-your-summer-series-events-with-alpha-camp-297451f29c26"
"date""Fri, 05 Jan 2024 16:02:15 GMT"
"content-type""text/html; charset=utf-8"
"transfer-encoding""chunked"
"connection""keep-alive"
"cf-ray""840cf1cf886830ab-SEA"
"cf-cache-status""MISS"
"cache-control""no-cache"
"content-encoding""gzip"
"etag""W/"199e6-Pye6XNy046YsCP2WqsP/PlDSLKw""
"link""<https://substackcdn.com>; rel=preconnect"
"set-cookie""ab_testing_id=%228356f004-bda3-486d-9e33-edb218353fc9%22; Max-Age=31536000; Domain=substack.com; Path=/; Expires=Sat, 04 Jan 2025 16:02:15 GMT; HttpOnly; Secure; SameSite=Lax, __cf_bm=Dk3NtLA8Rs.qy9i.cDgzrX0mOyyniQf6fXDUHNA8jjA-1704470535-1-AYuhb/tYjNziw+GLHaBmGU8ol9WtZaAnutXydcZ67pGPo9Tlw/0ovvL4/h5cco+ku7tO5oSu+MwQDNrXLLbDUT8=; path=/; expires=Fri, 05-Jan-24 16:32:15 GMT; domain=.substack.com; HttpOnly; Secure; SameSite=None"
"strict-transport-security""max-age=31536000"
"vary""Accept-Encoding"
"x-cluster""substack"
"x-deploy""ac3a682bfa"
"x-frame-options""sameorigin"
"x-powered-by""Express"
"x-served-by""Substack"
"x-sub""iamhlb"
"server""cloudflare"
"alt-svc""h3=":443"; ma=86400"
P
":method""GET"
":scheme""https"
":path""/p/ai-your-summer-series-events-with-alpha-camp-297451f29c26"
"user-agent""python-requests/2.31.0"
"accept-encoding""gzip, deflate"
"accept""*/*"
"connection""keep-alive"
Q
":method""GET"
":scheme""https"
":status""200"
":path""/p/random-note-on-june-29-2023/comments"
"date""Fri, 05 Jan 2024 16:02:16 GMT"
"content-type""text/html; charset=utf-8"
"transfer-encoding""chunked"
"connection""keep-alive"
"cf-ray""840cf1d24a220954-SEA"
"cf-cache-status""MISS"
"cache-control""no-cache"
"content-encoding""gzip"
"etag""W/"18c96-lxa+NGTchTzamZp213HFxuISprM""
"link""<https://substackcdn.com>; rel=preconnect"
"set-cookie""ab_testing_id=%22016afdd1-9777-4f2d-b359-523e24138d61%22; Max-Age=31536000; Domain=substack.com; Path=/; Expires=Sat, 04 Jan 2025 16:02:16 GMT; HttpOnly; Secure; SameSite=Lax, __cf_bm=CVLDHq2fckSKS_eFB6gl9g.ZoQ4Vi.675ykY4PYRFnI-1704470536-1-ASySYnEy/kT+iCofwzbac91ojDtIBFiRLMP8kG3nDM/XfFTs1leVf2weR59x382/BMLGmp2QQ3VYfDl1dgQw7no=; path=/; expires=Fri, 05-Jan-24 16:32:16 GMT; domain=.substack.com; HttpOnly; Secure; SameSite=None"
"strict-transport-security""max-age=31536000"
"vary""Accept-Encoding"
"x-cluster""substack"
"x-deploy""ac3a682bfa"
"x-frame-options""sameorigin"
"x-powered-by""Express"
"x-served-by""Substack"
"x-sub""iamhlb"
"server""cloudflare"
"alt-svc""h3=":443"; ma=86400"
P
":method""GET"
":scheme""https"
":path""/p/random-note-on-june-29-2023/comments"
"user-agent""python-requests/2.31.0"
"accept-encoding""gzip, deflate"
"accept""*/*"
"connection""keep-alive"
Q
":method""GET"
":scheme""https"
":status""200"
":path""/"
"date""Fri, 05 Jan 2024 16:02:16 GMT"
"content-type""text/html; charset=utf-8"
"transfer-encoding""chunked"
"connection""keep-alive"
"cf-ray""840cf1d51942c4cd-SEA"
"cf-cache-status""HIT"
"cache-control""no-cache"
"content-encoding""gzip"
"etag""W/"8d1f6-Jxv38MEQB93FT8xfTqjJJO0RCkU""
"link""<https://substackcdn.com>; rel=preconnect"
"set-cookie""ab_testing_id=%2295761ffb-ac5f-4485-ad7b-bf411c8ebb06%22; Max-Age=31536000; Domain=substack.com; Path=/; Expires=Sat, 04 Jan 2025 16:02:16 GMT; HttpOnly; Secure; SameSite=Lax, __cf_bm=NcHCxGGiQRo6rR6UPIjIDDuhqMN0dYjjiTaO205ALKY-1704470536-1-AT/+mPX/V9BC5GD2bQQW0LOGC2hd3GCM4ZV0GXkGB+cnJD/mcOp3J04ZmKKdJ7zQyUxqDy1tMfYaOnGU/qh1xRk=; path=/; expires=Fri, 05-Jan-24 16:32:16 GMT; domain=.substack.com; HttpOnly; Secure; SameSite=None"
"strict-transport-security""max-age=31536000"
"vary""Accept-Encoding"
"x-cluster""substack"
"x-deploy""ac3a682bfa"
"x-frame-options""sameorigin"
"x-powered-by""Express"
"x-served-by""Substack"
"x-sub""thesequence"
"server""cloudflare"
"alt-svc""h3=":443"; ma=86400"
P
":method""GET"
":scheme""https"
":path""/"
"user-agent""python-requests/2.31.0"
"accept-encoding""gzip, deflate"
"accept""*/*"
"connection""keep-alive"
Q
":method""GET"
":scheme""https"
":status""200"
":path""/p/large-language-model-llm-ithome-2"
"date""Fri, 05 Jan 2024 16:02:17 GMT"
"content-type""text/html; charset=utf-8"
"transfer-encoding""chunked"
"connection""keep-alive"
"cf-ray""840cf1d72aa3ec64-SEA"
"cf-cache-status""MISS"
"cache-control""no-cache"
"content-encoding""gzip"
"etag""W/"28f18-DhfY64Ec5NdCUmZbzHX3daMGGJ8""
"link""<https://substackcdn.com>; rel=preconnect"
"set-cookie""ab_testing_id=%2267b19f63-d624-4ce5-a459-37dfa7d65c9e%22; Max-Age=31536000; Domain=substack.com; Path=/; Expires=Sat, 04 Jan 2025 16:02:17 GMT; HttpOnly; Secure; SameSite=Lax, __cf_bm=7hsv34gMsybdT5gcSVaRGod3YhrzxWfyzNfBs6QcbwE-1704470537-1-AbHuWImQQaWVy0qi0me2DMxjKlEBuEZb8eEX4Gx+nSO2hcxRwML7PU4ooWl9EztWg47XLn7TwMF/q3+neK1s0Is=; path=/; expires=Fri, 05-Jan-24 16:32:17 GMT; domain=.substack.com; HttpOnly; Secure; SameSite=None"
"strict-transport-security""max-age=31536000"
"vary""Accept-Encoding"
"x-cluster""substack"
"x-deploy""ac3a682bfa"
"x-frame-options""sameorigin"
"x-powered-by""Express"
"x-served-by""Substack"
"x-sub""iamhlb"
"server""cloudflare"
"alt-svc""h3=":443"; ma=86400"
P
":method""GET"
":scheme""https"
":path""/p/large-language-model-llm-ithome-2"
"user-agent""python-requests/2.31.0"
"accept-encoding""gzip, deflate"
"accept""*/*"
"connection""keep-alive"
Q
":method""GET"
":scheme""https"
":status""200"
":path""/p/ai-your-summer-series-events-with-alpha-camp-297451f29c26/comments"
"date""Fri, 05 Jan 2024 16:02:17 GMT"
"content-type""text/html; charset=utf-8"
"transfer-encoding""chunked"
"connection""keep-alive"
"cf-ray""840cf1d9fda8ec2b-SEA"
"cf-cache-status""MISS"
"cache-control""no-cache"
"content-encoding""gzip"
"etag""W/"12337-V6+dnr4hLG2Qyzg1Jzf+ut9MYPY""
"link""<https://substackcdn.com>; rel=preconnect"
"set-cookie""ab_testing_id=%22546ce464-5335-460c-8c16-1cc54aca1aca%22; Max-Age=31536000; Domain=substack.com; Path=/; Expires=Sat, 04 Jan 2025 16:02:17 GMT; HttpOnly; Secure; SameSite=Lax, __cf_bm=CmQsGQdKNvZ2yChTR4HtU8g.HkyW7qikmsMjJWAn2e8-1704470537-1-AYci+shngm7iYKBTOTY+42+YPAVpIr/ACFJq4GduYVHBVWLxbpMbAfDNcZBWqf+sRDUCiOy81SOgWNl/m9LMATo=; path=/; expires=Fri, 05-Jan-24 16:32:17 GMT; domain=.substack.com; HttpOnly; Secure; SameSite=None"
"strict-transport-security""max-age=31536000"
"vary""Accept-Encoding"
"x-cluster""substack"
"x-deploy""ac3a682bfa"
"x-frame-options""sameorigin"
"x-powered-by""Express"
"x-served-by""Substack"
"x-sub""iamhlb"
"server""cloudflare"
"alt-svc""h3=":443"; ma=86400"
P
":method""GET"
":scheme""https"
":path""/p/ai-your-summer-series-events-with-alpha-camp-297451f29c26/comments"
"user-agent""python-requests/2.31.0"
"accept-encoding""gzip, deflate"
"accept""*/*"
"connection""keep-alive"
Q
":method""GET"
":scheme""https"
":status""200"
":path""/p/large-language-model-llm-ithome-4"
"date""Fri, 05 Jan 2024 16:02:18 GMT"
"content-type""text/html; charset=utf-8"
"transfer-encoding""chunked"
"connection""keep-alive"
"cf-ray""840cf1dd49e4c4aa-SEA"
"cf-cache-status""MISS"
"cache-control""no-cache"
"content-encoding""gzip"
"etag""W/"286ff-j16R4nY9QQ4ML+EJw1LQce/1HQo""
"link""<https://substackcdn.com>; rel=preconnect"
"set-cookie""ab_testing_id=%22c1e93e4f-fca5-400b-b721-e3b4b2e589be%22; Max-Age=31536000; Domain=substack.com; Path=/; Expires=Sat, 04 Jan 2025 16:02:18 GMT; HttpOnly; Secure; SameSite=Lax, __cf_bm=GVXtMpVZKvyTWaLhqt6pc37bOrUIpzPENSjPMIsXrfI-1704470538-1-ASjc24bqo8lKDbNsX6MOne56nzrurzQKsAID/ilIF0dQBx5NSzRLmJ2LMLtMUaKFEfn3L48KAghT5Bu2b1y3acc=; path=/; expires=Fri, 05-Jan-24 16:32:18 GMT; domain=.substack.com; HttpOnly; Secure; SameSite=None"
"strict-transport-security""max-age=31536000"
"vary""Accept-Encoding"
"x-cluster""substack"
"x-deploy""ac3a682bfa"
"x-frame-options""sameorigin"
"x-powered-by""Express"
"x-served-by""Substack"
"x-sub""iamhlb"
"server""cloudflare"
"alt-svc""h3=":443"; ma=86400"
P
":method""GET"
":scheme""https"
":path""/p/large-language-model-llm-ithome-4"
"user-agent""python-requests/2.31.0"
"accept-encoding""gzip, deflate"
"accept""*/*"
"connection""keep-alive"
Q
":method""GET"
":scheme""https"
":status""200"
":path""/privacy"
"date""Fri, 05 Jan 2024 16:02:18 GMT"
"content-type""text/html; charset=utf-8"
"transfer-encoding""chunked"
"connection""keep-alive"
"cf-ray""840cf1e02882c384-SEA"
"cf-cache-status""DYNAMIC"
"cache-control""no-cache"
"content-encoding""gzip"
"etag""W/"545b0-XqW/R24VH9hcPdTK2azQc9u1q+o""
"set-cookie""ab_testing_id=%2298a92e73-8f0e-43be-ac74-1cbcb6355671%22; Max-Age=31536000; Domain=substack.com; Path=/; Expires=Sat, 04 Jan 2025 16:02:18 GMT; HttpOnly; Secure; SameSite=Lax, AWSALBTG=2L7UPgWBv3cv9/66mdoOktv5eDXDGOUXiyFcyd2lvPFb2uoq+ZoxNSzaJoSlKtR9VOsVunmvQb8kYsGKUDat0agmJTwTysE/OZig7wq4WIZQklWJwxPQzFCNsxU1EHKYsPVCLYHYP+ZvOMBRLMR/zEzrMxkxM3hIdbuxogV+bHKB; Expires=Fri, 12 Jan 2024 16:02:18 GMT; Path=/, AWSALBTGCORS=2L7UPgWBv3cv9/66mdoOktv5eDXDGOUXiyFcyd2lvPFb2uoq+ZoxNSzaJoSlKtR9VOsVunmvQb8kYsGKUDat0agmJTwTysE/OZig7wq4WIZQklWJwxPQzFCNsxU1EHKYsPVCLYHYP+ZvOMBRLMR/zEzrMxkxM3hIdbuxogV+bHKB; Expires=Fri, 12 Jan 2024 16:02:18 GMT; Path=/; SameSite=None; Secure, ajs_anonymous_id=%22fb2e98ae-0949-4c6e-b3ca-4a982a9dcb08%22; Max-Age=31536000; Domain=substack.com; Path=/; Expires=Sat, 04 Jan 2025 16:02:18 GMT; SameSite=Strict, visit_id=%7B%22id%22%3A%22ba7dba4f-ee45-4dd1-a2a5-69a63f866ad8%22%2C%22timestamp%22%3A%222024-01-05T16%3A02%3A18.350Z%22%7D; Max-Age=1800; Domain=substack.com; Path=/; Expires=Fri, 05 Jan 2024 16:32:18 GMT; HttpOnly; SameSite=Strict, __cf_bm=6IO1eHbnZui86oi6wtCLuPP97VsfUJxqZ_0wAas__EY-1704470538-1-AX8NlatDBTT6vqmQH0/2dR+iLVWqgvJJu5trdQ6mN+H4bAT383Wn7kTf+NqWGMrkEVqBQMI45AWKYmesl/FV/7E=; path=/; expires=Fri, 05-Jan-24 16:32:18 GMT; domain=.substack.com; HttpOnly; Secure; SameSite=None"
"strict-transport-security""max-age=31536000"
"vary""Accept-Encoding"
"x-cluster""substack"
"x-deploy""ac3a682bfa"
"x-frame-options""sameorigin"
"x-powered-by""Express"
"x-served-by""Substack"
"server""cloudflare"
"alt-svc""h3=":443"; ma=86400"
P
":method""GET"
":scheme""https"
":path""/privacy"
"user-agent""python-requests/2.31.0"
"accept-encoding""gzip, deflate"
"accept""*/*"
"connection""keep-alive"
Q
":method""GET"
":scheme""https"
":status""200"
":path""/p/d866a6dace53/comments"
"date""Fri, 05 Jan 2024 16:02:18 GMT"
"content-type""text/html; charset=utf-8"
"transfer-encoding""chunked"
"connection""keep-alive"
"cf-ray""840cf1e24cecc5c1-SEA"
"cf-cache-status""HIT"
"cache-control""no-cache"
"content-encoding""gzip"
"etag""W/"128d7-dR0EvMvo0fY6Tko0p4dxuKMCPiM""
"link""<https://substackcdn.com>; rel=preconnect"
"set-cookie""ab_testing_id=%2200a0e869-9d4d-4ccf-a1d2-7c5d45a1fafd%22; Max-Age=31536000; Domain=substack.com; Path=/; Expires=Sat, 04 Jan 2025 16:02:18 GMT; HttpOnly; Secure; SameSite=Lax, __cf_bm=cjel49aVDm8ouZXtYbonGgBajG_Bh8v_rZ20AQdi3tw-1704470538-1-AS9fmrCZtIeieU3x8EcFEzB5V0jyILm7wTO1Ej1EM0qwbkSO4nGq7Zk2djCyBDF+F1N0bOhywuyTCngCRx2lFec=; path=/; expires=Fri, 05-Jan-24 16:32:18 GMT; domain=.substack.com; HttpOnly; Secure; SameSite=None"
"strict-transport-security""max-age=31536000"
"vary""Accept-Encoding"
"x-cluster""substack"
"x-deploy""ac3a682bfa"
"x-frame-options""sameorigin"
"x-powered-by""Express"
"x-served-by""Substack"
"x-sub""iamhlb"
"server""cloudflare"
"alt-svc""h3=":443"; ma=86400"
P
":method""GET"
":scheme""https"
":path""/p/d866a6dace53/comments"
"user-agent""python-requests/2.31.0"
"accept-encoding""gzip, deflate"
"accept""*/*"
"connection""keep-alive"
Q
":method""GET"
":scheme""https"
":status""200"
":path""/p/large-language-model-llm-ithome-1/comments"
"date""Fri, 05 Jan 2024 16:02:19 GMT"
"content-type""text/html; charset=utf-8"
"transfer-encoding""chunked"
"connection""keep-alive"
"cf-ray""840cf1e46e523099-SEA"
"cf-cache-status""EXPIRED"
"cache-control""no-cache"
"content-encoding""gzip"
"etag""W/"21b11-21pdvnfJyTPBs6ap9w6pVM43WgY""
"link""<https://substackcdn.com>; rel=preconnect"
"set-cookie""ab_testing_id=%227464f9bd-1112-48c6-be9d-50192002080d%22; Max-Age=31536000; Domain=substack.com; Path=/; Expires=Sat, 04 Jan 2025 16:02:19 GMT; HttpOnly; Secure; SameSite=Lax, __cf_bm=9Pi0N7nLm3K6Kwt2TMrAK7_t9F9lEPMNI00QEa6fPjg-1704470539-1-Ad3Zzw8RYDt0CuHTL0z57zYW5Vf1sDo8cztSxtHNr7zX9BlYkrMTZKxKGwbCR+LMgNOLgbEM0W3UMbNKw8zfPkI=; path=/; expires=Fri, 05-Jan-24 16:32:19 GMT; domain=.substack.com; HttpOnly; Secure; SameSite=None"
"strict-transport-security""max-age=31536000"
"vary""Accept-Encoding"
"x-cluster""substack"
"x-deploy""ac3a682bfa"
"x-frame-options""sameorigin"
"x-powered-by""Express"
"x-served-by""Substack"
"x-sub""iamhlb"
"server""cloudflare"
"alt-svc""h3=":443"; ma=86400"
P
":method""GET"
":scheme""https"
":path""/p/large-language-model-llm-ithome-1/comments"
"user-agent""python-requests/2.31.0"
"accept-encoding""gzip, deflate"
"accept""*/*"
"connection""keep-alive"
Q
":method""GET"
":scheme""https"
":status""200"
":path""/p/random-note-june-19-5189cea9497b/comments"
"date""Fri, 05 Jan 2024 16:02:19 GMT"
"content-type""text/html; charset=utf-8"
"transfer-encoding""chunked"
"connection""keep-alive"
"cf-ray""840cf1e738f9eb4f-SEA"
"cf-cache-status""HIT"
"cache-control""no-cache"
"content-encoding""gzip"
"etag""W/"11734-tJC84BEn+P9AaQ3NKl0N9eUNMVs""
"link""<https://substackcdn.com>; rel=preconnect"
"set-cookie""ab_testing_id=%227514db9d-9466-4fc3-a5f0-67178646356a%22; Max-Age=31536000; Domain=substack.com; Path=/; Expires=Sat, 04 Jan 2025 16:02:19 GMT; HttpOnly; Secure; SameSite=Lax, __cf_bm=3h_6OIKSZYHNR3AUj6Ma6lpRUVyXCJop9zlyHZYRWh4-1704470539-1-AQI0xrpnuz05siQv1SAMdHDQ6E7bZYg1m1EnaLgHYTet8tOHXkGbS3kbEeaYtiXGBlyK+CoRyy8GtCRdp42JFMk=; path=/; expires=Fri, 05-Jan-24 16:32:19 GMT; domain=.substack.com; HttpOnly; Secure; SameSite=None"
"strict-transport-security""max-age=31536000"
"vary""Accept-Encoding"
"x-cluster""substack"
"x-deploy""ac3a682bfa"
"x-frame-options""sameorigin"
"x-powered-by""Express"
"x-served-by""Substack"
"x-sub""iamhlb"
"server""cloudflare"
"alt-svc""h3=":443"; ma=86400"
P
":method""GET"
":scheme""https"
":path""/p/random-note-june-19-5189cea9497b/comments"
"user-agent""python-requests/2.31.0"
"accept-encoding""gzip, deflate"
"accept""*/*"
"connection""keep-alive"
Q
":method""GET"
":scheme""https"
":status""200"
":path""/p/large-language-model-llm-ithome-5/comments"
"date""Fri, 05 Jan 2024 16:02:19 GMT"
"content-type""text/html; charset=utf-8"
"transfer-encoding""chunked"
"connection""keep-alive"
"cf-ray""840cf1e8baa8681e-SEA"
"cf-cache-status""HIT"
"cache-control""no-cache"
"content-encoding""gzip"
"etag""W/"1bc11-nQAYYpBAW8S/zZNpsYOHWjoO9kY""
"link""<https://substackcdn.com>; rel=preconnect"
"set-cookie""ab_testing_id=%225f5e9dea-3b5d-44f2-b030-92ae914f67aa%22; Max-Age=31536000; Domain=substack.com; Path=/; Expires=Sat, 04 Jan 2025 16:02:19 GMT; HttpOnly; Secure; SameSite=Lax, __cf_bm=iE6rqIm03jct01_n7_YUGXOV8I5XCBR8lWvpDesQBf4-1704470539-1-AZo0t3nntRtW6l+3j0yqcOz2ToP15IJDUcR1KN/XtfyiTFcb6IyyeD/RvBbAyYQZ7xkZBx9PsoL83DuHWoKhcZo=; path=/; expires=Fri, 05-Jan-24 16:32:19 GMT; domain=.substack.com; HttpOnly; Secure; SameSite=None"
"strict-transport-security""max-age=31536000"
"vary""Accept-Encoding"
"x-cluster""substack"
"x-deploy""ac3a682bfa"
"x-frame-options""sameorigin"
"x-powered-by""Express"
"x-served-by""Substack"
"x-sub""iamhlb"
"server""cloudflare"
"alt-svc""h3=":443"; ma=86400"
P
":method""GET"
":scheme""https"
":path""/p/large-language-model-llm-ithome-5/comments"
"user-agent""python-requests/2.31.0"
"accept-encoding""gzip, deflate"
"accept""*/*"
"connection""keep-alive"
Q
":method""GET"
":scheme""https"
":status""200"
":path""/recommendations"
"date""Fri, 05 Jan 2024 16:02:20 GMT"
"content-type""text/html; charset=utf-8"
"transfer-encoding""chunked"
"connection""keep-alive"
"cf-ray""840cf1ea38f7682e-SEA"
"cf-cache-status""DYNAMIC"
"cache-control""no-cache"
"content-encoding""gzip"
"etag""W/"cb91-9KblGnbCxWcfhM61yAsLFNBqtcc""
"set-cookie""ab_testing_id=%22b513f9f7-c1a2-4c6b-9a02-614d6642e050%22; Max-Age=31536000; Domain=substack.com; Path=/; Expires=Sat, 04 Jan 2025 16:02:20 GMT; HttpOnly; Secure; SameSite=Lax, AWSALBTG=YH91im+yM0xk59lIV3iHlnd44dO61L0NKBo+Zz+T1EyMe6EpAGGGMtOMO3EVNWzsEBJJJ7TNHJ3LK+vlqwR/LjxNUWJ0pd3T2LO3jviZptiSlULqvDwWjFteocT/StwsSo/88I8ausE6cE+6SvHBehhwBMui3lDLp3TPA1MFoq3a; Expires=Fri, 12 Jan 2024 16:02:19 GMT; Path=/, AWSALBTGCORS=YH91im+yM0xk59lIV3iHlnd44dO61L0NKBo+Zz+T1EyMe6EpAGGGMtOMO3EVNWzsEBJJJ7TNHJ3LK+vlqwR/LjxNUWJ0pd3T2LO3jviZptiSlULqvDwWjFteocT/StwsSo/88I8ausE6cE+6SvHBehhwBMui3lDLp3TPA1MFoq3a; Expires=Fri, 12 Jan 2024 16:02:19 GMT; Path=/; SameSite=None; Secure, ajs_anonymous_id=%221146e47c-8b56-4bc2-a63f-b2e2aadb4266%22; Max-Age=31536000; Domain=substack.com; Path=/; Expires=Sat, 04 Jan 2025 16:02:19 GMT; SameSite=Strict, visit_id=%7B%22id%22%3A%22921440c8-9002-4730-af5f-8f99c209c0cc%22%2C%22timestamp%22%3A%222024-01-05T16%3A02%3A19.934Z%22%7D; Max-Age=1800; Domain=substack.com; Path=/; Expires=Fri, 05 Jan 2024 16:32:19 GMT; HttpOnly; SameSite=Strict, __cf_bm=7lmHA0YfTUs0UDa8AaufMRkZvMjsNTcA9C2MWCKs7NA-1704470540-1-AanVFmvmGiFfuudY7CwK8pF7dziUwS2osFMCZ6OSHf4E2+Bv4DwKoxrLb5tF5FuuZQW9ohk/tNvIMxyXWWaLoAI=; path=/; expires=Fri, 05-Jan-24 16:32:20 GMT; domain=.substack.com; HttpOnly; Secure; SameSite=None"
"strict-transport-security""max-age=31536000"
"vary""Accept-Encoding"
"x-cluster""substack"
"x-deploy""ac3a682bfa"
"x-frame-options""sameorigin"
"x-powered-by""Express"
"x-served-by""Substack"
"x-sub""iamhlb"
"server""cloudflare"
"alt-svc""h3=":443"; ma=86400"
P
":method""GET"
":scheme""https"
":path""/recommendations"
"user-agent""python-requests/2.31.0"
"accept-encoding""gzip, deflate"
"accept""*/*"
"connection""keep-alive"
Q
":method""GET"
":scheme""https"
":status""200"
":path""/p/refined-reflections-on-openai-dev"
"date""Fri, 05 Jan 2024 16:02:20 GMT"
"content-type""text/html; charset=utf-8"
"transfer-encoding""chunked"
"connection""keep-alive"
"cf-ray""840cf1ebff31c53d-SEA"
"cf-cache-status""HIT"
"cache-control""no-cache"
"content-encoding""gzip"
"etag""W/"216bf-06277GniGCQmCl8Bm964CPWUTGs""
"link""<https://substackcdn.com>; rel=preconnect"
"set-cookie""ab_testing_id=%2255666a3c-b520-483c-9a46-e5253a3d98a4%22; Max-Age=31536000; Domain=substack.com; Path=/; Expires=Sat, 04 Jan 2025 16:02:20 GMT; HttpOnly; Secure; SameSite=Lax, __cf_bm=64y1jcBGT7KVzSjGQ0d9PzuND3W7QfYWxTNYIagxgoc-1704470540-1-AZTXXApCXujeFB9K5uGlzWepsm5Ev/q2D5bqgXNqE6eKpWW8DW+vRlfLQY3sfMqgoAMFIwNMYycAJzw/dGOOWXU=; path=/; expires=Fri, 05-Jan-24 16:32:20 GMT; domain=.substack.com; HttpOnly; Secure; SameSite=None"
"strict-transport-security""max-age=31536000"
"vary""Accept-Encoding"
"x-cluster""substack"
"x-deploy""ac3a682bfa"
"x-frame-options""sameorigin"
"x-powered-by""Express"
"x-served-by""Substack"
"x-sub""iamhlb"
"server""cloudflare"
"alt-svc""h3=":443"; ma=86400"
P
":method""GET"
":scheme""https"
":path""/p/refined-reflections-on-openai-dev"
"user-agent""python-requests/2.31.0"
"accept-encoding""gzip, deflate"
"accept""*/*"
"connection""keep-alive"
