FunctionName HttplightSitemap
Q
":method""GET"
":scheme""https"
":status""404"
":path""/2023-10-31T02:50:47+00:001.00"
"strict-transport-security""max-age=31536000"
"content-type""text/html; charset=utf-8"
"content-length""785"
"date""Fri, 05 Jan 2024 16:05:49 GMT"
"server""lighttpd/2.0.0"
P
":method""GET"
":scheme""https"
":path""/2023-10-31T02:50:47+00:001.00"
"user-agent""python-requests/2.31.0"
"accept-encoding""gzip, deflate"
"accept""*/*"
"connection""keep-alive"
Q
":method""GET"
":scheme""https"
":status""404"
":path""/benchmark/2023-10-31T02:50:47+00:000.80"
"strict-transport-security""max-age=31536000"
"content-type""text/html; charset=utf-8"
"content-length""785"
"date""Fri, 05 Jan 2024 16:05:49 GMT"
"server""lighttpd/2.0.0"
P
":method""GET"
":scheme""https"
":path""/benchmark/2023-10-31T02:50:47+00:000.80"
"user-agent""python-requests/2.31.0"
"accept-encoding""gzip, deflate"
"accept""*/*"
"connection""keep-alive"
Q
":method""GET"
":scheme""https"
":status""404"
":path""/releases/2023-10-31T02:50:47+00:000.80"
"strict-transport-security""max-age=31536000"
"content-type""text/html; charset=utf-8"
"content-length""785"
"date""Fri, 05 Jan 2024 16:05:50 GMT"
"server""lighttpd/2.0.0"
P
":method""GET"
":scheme""https"
":path""/releases/2023-10-31T02:50:47+00:000.80"
"user-agent""python-requests/2.31.0"
"accept-encoding""gzip, deflate"
"accept""*/*"
"connection""keep-alive"
Q
":method""GET"
":scheme""https"
":status""404"
":path""/story/2023-10-31T02:50:47+00:000.80"
"strict-transport-security""max-age=31536000"
"content-type""text/html; charset=utf-8"
"content-length""785"
"date""Fri, 05 Jan 2024 16:05:51 GMT"
"server""lighttpd/2.0.0"
P
":method""GET"
":scheme""https"
":path""/story/2023-10-31T02:50:47+00:000.80"
"user-agent""python-requests/2.31.0"
"accept-encoding""gzip, deflate"
"accept""*/*"
"connection""keep-alive"
Q
":method""GET"
":scheme""https"
":status""404"
":path""/thank-you/2023-10-31T02:50:47+00:000.80"
"strict-transport-security""max-age=31536000"
"content-type""text/html; charset=utf-8"
"content-length""785"
"date""Fri, 05 Jan 2024 16:05:51 GMT"
"server""lighttpd/2.0.0"
P
":method""GET"
":scheme""https"
":path""/thank-you/2023-10-31T02:50:47+00:000.80"
"user-agent""python-requests/2.31.0"
"accept-encoding""gzip, deflate"
"accept""*/*"
"connection""keep-alive"
Q
":method""GET"
":scheme""https"
":status""404"
":path""/2023/10/30/1.4.73/2023-10-31T02:50:47+00:000.80"
"strict-transport-security""max-age=31536000"
"content-type""text/html; charset=utf-8"
"content-length""785"
"date""Fri, 05 Jan 2024 16:05:52 GMT"
"server""lighttpd/2.0.0"
P
":method""GET"
":scheme""https"
":path""/2023/10/30/1.4.73/2023-10-31T02:50:47+00:000.80"
"user-agent""python-requests/2.31.0"
"accept-encoding""gzip, deflate"
"accept""*/*"
"connection""keep-alive"
Q
":method""GET"
":scheme""https"
":status""404"
":path""/benchmark/index.html2023-10-31T02:50:47+00:000.64"
"strict-transport-security""max-age=31536000"
"content-type""text/html; charset=utf-8"
"content-length""785"
"date""Fri, 05 Jan 2024 16:05:53 GMT"
"server""lighttpd/2.0.0"
P
":method""GET"
":scheme""https"
":path""/benchmark/index.html2023-10-31T02:50:47+00:000.64"
"user-agent""python-requests/2.31.0"
"accept-encoding""gzip, deflate"
"accept""*/*"
"connection""keep-alive"
Q
":method""GET"
":scheme""https"
":status""404"
":path""/benchmark/page2.html2023-10-31T02:50:47+00:000.64"
"strict-transport-security""max-age=31536000"
"content-type""text/html; charset=utf-8"
"content-length""785"
"date""Fri, 05 Jan 2024 16:05:53 GMT"
"server""lighttpd/2.0.0"
P
":method""GET"
":scheme""https"
":path""/benchmark/page2.html2023-10-31T02:50:47+00:000.64"
"user-agent""python-requests/2.31.0"
"accept-encoding""gzip, deflate"
"accept""*/*"
"connection""keep-alive"
Q
":method""GET"
":scheme""https"
":status""404"
":path""/2007/3/5/thread-starvation/2023-10-31T02:50:47+00:000.64"
"strict-transport-security""max-age=31536000"
"content-type""text/html; charset=utf-8"
"content-length""785"
"date""Fri, 05 Jan 2024 16:05:54 GMT"
"server""lighttpd/2.0.0"
P
":method""GET"
":scheme""https"
":path""/2007/3/5/thread-starvation/2023-10-31T02:50:47+00:000.64"
"user-agent""python-requests/2.31.0"
"accept-encoding""gzip, deflate"
"accept""*/*"
"connection""keep-alive"
Q
":method""GET"
":scheme""https"
":status""404"
":path""/2007/2/11/buffered-io-performance/2023-10-31T02:50:47+00:000.64"
"strict-transport-security""max-age=31536000"
"content-type""text/html; charset=utf-8"
"content-length""785"
"date""Fri, 05 Jan 2024 16:05:55 GMT"
"server""lighttpd/2.0.0"
P
":method""GET"
":scheme""https"
":path""/2007/2/11/buffered-io-performance/2023-10-31T02:50:47+00:000.64"
"user-agent""python-requests/2.31.0"
"accept-encoding""gzip, deflate"
"accept""*/*"
"connection""keep-alive"
Q
":method""GET"
":scheme""https"
":status""404"
":path""/2007/2/3/raw-io-performance/2023-10-31T02:50:47+00:000.64"
"strict-transport-security""max-age=31536000"
"content-type""text/html; charset=utf-8"
"content-length""785"
"date""Fri, 05 Jan 2024 16:05:56 GMT"
"server""lighttpd/2.0.0"
P
":method""GET"
":scheme""https"
":path""/2007/2/3/raw-io-performance/2023-10-31T02:50:47+00:000.64"
"user-agent""python-requests/2.31.0"
"accept-encoding""gzip, deflate"
"accept""*/*"
"connection""keep-alive"
Q
":method""GET"
":scheme""https"
":status""404"
":path""/releases/index.html2023-10-31T02:50:47+00:000.64"
"strict-transport-security""max-age=31536000"
"content-type""text/html; charset=utf-8"
"content-length""785"
"date""Fri, 05 Jan 2024 16:05:56 GMT"
"server""lighttpd/2.0.0"
P
":method""GET"
":scheme""https"
":path""/releases/index.html2023-10-31T02:50:47+00:000.64"
"user-agent""python-requests/2.31.0"
"accept-encoding""gzip, deflate"
"accept""*/*"
"connection""keep-alive"
Q
":method""GET"
":scheme""https"
":status""404"
":path""/releases/page2.html2023-10-31T02:50:47+00:000.64"
"strict-transport-security""max-age=31536000"
"content-type""text/html; charset=utf-8"
"content-length""785"
"date""Fri, 05 Jan 2024 16:05:57 GMT"
"server""lighttpd/2.0.0"
P
":method""GET"
":scheme""https"
":path""/releases/page2.html2023-10-31T02:50:47+00:000.64"
"user-agent""python-requests/2.31.0"
"accept-encoding""gzip, deflate"
"accept""*/*"
"connection""keep-alive"
Q
":method""GET"
":scheme""https"
":status""404"
":path""/releases/page3.html2023-10-31T02:50:47+00:000.64"
"strict-transport-security""max-age=31536000"
"content-type""text/html; charset=utf-8"
"content-length""785"
"date""Fri, 05 Jan 2024 16:05:58 GMT"
"server""lighttpd/2.0.0"
P
":method""GET"
":scheme""https"
":path""/releases/page3.html2023-10-31T02:50:47+00:000.64"
"user-agent""python-requests/2.31.0"
"accept-encoding""gzip, deflate"
"accept""*/*"
"connection""keep-alive"
Q
":method""GET"
":scheme""https"
":status""404"
":path""/2023/10/6/1.4.72/2023-10-31T02:50:47+00:000.64"
"strict-transport-security""max-age=31536000"
"content-type""text/html; charset=utf-8"
"content-length""785"
"date""Fri, 05 Jan 2024 16:05:59 GMT"
"server""lighttpd/2.0.0"
P
":method""GET"
":scheme""https"
":path""/2023/10/6/1.4.72/2023-10-31T02:50:47+00:000.64"
"user-agent""python-requests/2.31.0"
"accept-encoding""gzip, deflate"
"accept""*/*"
"connection""keep-alive"
Q
":method""GET"
":scheme""https"
":status""404"
":path""/2023/5/27/1.4.71/2023-10-31T02:50:47+00:000.64"
"strict-transport-security""max-age=31536000"
"content-type""text/html; charset=utf-8"
"content-length""785"
"date""Fri, 05 Jan 2024 16:05:59 GMT"
"server""lighttpd/2.0.0"
P
":method""GET"
":scheme""https"
":path""/2023/5/27/1.4.71/2023-10-31T02:50:47+00:000.64"
"user-agent""python-requests/2.31.0"
"accept-encoding""gzip, deflate"
"accept""*/*"
"connection""keep-alive"
Q
":method""GET"
":scheme""https"
":status""404"
":path""/2023/5/10/1.4.70/2023-10-31T02:50:47+00:000.64"
"strict-transport-security""max-age=31536000"
"content-type""text/html; charset=utf-8"
"content-length""785"
"date""Fri, 05 Jan 2024 16:06:00 GMT"
"server""lighttpd/2.0.0"
P
":method""GET"
":scheme""https"
":path""/2023/5/10/1.4.70/2023-10-31T02:50:47+00:000.64"
"user-agent""python-requests/2.31.0"
"accept-encoding""gzip, deflate"
"accept""*/*"
"connection""keep-alive"
Q
":method""GET"
":scheme""https"
":status""404"
":path""/2023/2/10/1.4.69/2023-10-31T02:50:47+00:000.64"
"strict-transport-security""max-age=31536000"
"content-type""text/html; charset=utf-8"
"content-length""785"
"date""Fri, 05 Jan 2024 16:06:01 GMT"
"server""lighttpd/2.0.0"
P
":method""GET"
":scheme""https"
":path""/2023/2/10/1.4.69/2023-10-31T02:50:47+00:000.64"
"user-agent""python-requests/2.31.0"
"accept-encoding""gzip, deflate"
"accept""*/*"
"connection""keep-alive"
Q
":method""GET"
":scheme""https"
":status""404"
":path""/2023/1/3/1.4.68/2023-10-31T02:50:47+00:000.64"
"strict-transport-security""max-age=31536000"
"content-type""text/html; charset=utf-8"
"content-length""785"
"date""Fri, 05 Jan 2024 16:06:01 GMT"
"server""lighttpd/2.0.0"
P
":method""GET"
":scheme""https"
":path""/2023/1/3/1.4.68/2023-10-31T02:50:47+00:000.64"
"user-agent""python-requests/2.31.0"
"accept-encoding""gzip, deflate"
"accept""*/*"
"connection""keep-alive"
Q
":method""GET"
":scheme""https"
":status""404"
":path""/2022/9/17/1.4.67/2023-10-31T02:50:47+00:000.64"
"strict-transport-security""max-age=31536000"
"content-type""text/html; charset=utf-8"
"content-length""785"
"date""Fri, 05 Jan 2024 16:06:02 GMT"
"server""lighttpd/2.0.0"
P
":method""GET"
":scheme""https"
":path""/2022/9/17/1.4.67/2023-10-31T02:50:47+00:000.64"
"user-agent""python-requests/2.31.0"
"accept-encoding""gzip, deflate"
"accept""*/*"
"connection""keep-alive"
Q
":method""GET"
":scheme""https"
":status""404"
":path""/2022/8/7/1.4.66/2023-10-31T02:50:47+00:000.64"
"strict-transport-security""max-age=31536000"
"content-type""text/html; charset=utf-8"
"content-length""785"
"date""Fri, 05 Jan 2024 16:06:03 GMT"
"server""lighttpd/2.0.0"
P
":method""GET"
":scheme""https"
":path""/2022/8/7/1.4.66/2023-10-31T02:50:47+00:000.64"
"user-agent""python-requests/2.31.0"
"accept-encoding""gzip, deflate"
"accept""*/*"
"connection""keep-alive"
Q
":method""GET"
":scheme""https"
":status""404"
":path""/2022/6/7/1.4.65/2023-10-31T02:50:47+00:000.64"
"strict-transport-security""max-age=31536000"
"content-type""text/html; charset=utf-8"
"content-length""785"
"date""Fri, 05 Jan 2024 16:06:03 GMT"
"server""lighttpd/2.0.0"
P
":method""GET"
":scheme""https"
":path""/2022/6/7/1.4.65/2023-10-31T02:50:47+00:000.64"
"user-agent""python-requests/2.31.0"
"accept-encoding""gzip, deflate"
"accept""*/*"
"connection""keep-alive"
Q
":method""GET"
":scheme""https"
":status""404"
":path""/2022/1/19/1.4.64/2023-10-31T02:50:47+00:000.64"
"strict-transport-security""max-age=31536000"
"content-type""text/html; charset=utf-8"
"content-length""785"
"date""Fri, 05 Jan 2024 16:06:04 GMT"
"server""lighttpd/2.0.0"
P
":method""GET"
":scheme""https"
":path""/2022/1/19/1.4.64/2023-10-31T02:50:47+00:000.64"
"user-agent""python-requests/2.31.0"
"accept-encoding""gzip, deflate"
"accept""*/*"
"connection""keep-alive"
Q
":method""GET"
":scheme""https"
":status""404"
":path""/2021/12/4/1.4.63/2023-10-31T02:50:47+00:000.64"
"strict-transport-security""max-age=31536000"
"content-type""text/html; charset=utf-8"
"content-length""785"
"date""Fri, 05 Jan 2024 16:06:05 GMT"
"server""lighttpd/2.0.0"
P
":method""GET"
":scheme""https"
":path""/2021/12/4/1.4.63/2023-10-31T02:50:47+00:000.64"
"user-agent""python-requests/2.31.0"
"accept-encoding""gzip, deflate"
"accept""*/*"
"connection""keep-alive"
Q
":method""GET"
":scheme""https"
":status""404"
":path""/2021/12/1/1.4.62/2023-10-31T02:50:47+00:000.64"
"strict-transport-security""max-age=31536000"
"content-type""text/html; charset=utf-8"
"content-length""785"
"date""Fri, 05 Jan 2024 16:06:05 GMT"
"server""lighttpd/2.0.0"
P
":method""GET"
":scheme""https"
":path""/2021/12/1/1.4.62/2023-10-31T02:50:47+00:000.64"
"user-agent""python-requests/2.31.0"
"accept-encoding""gzip, deflate"
"accept""*/*"
"connection""keep-alive"
Q
":method""GET"
":scheme""https"
":status""404"
":path""/2021/10/28/1.4.61/2023-10-31T02:50:47+00:000.64"
"strict-transport-security""max-age=31536000"
"content-type""text/html; charset=utf-8"
"content-length""785"
"date""Fri, 05 Jan 2024 16:06:06 GMT"
"server""lighttpd/2.0.0"
P
":method""GET"
":scheme""https"
":path""/2021/10/28/1.4.61/2023-10-31T02:50:47+00:000.64"
"user-agent""python-requests/2.31.0"
"accept-encoding""gzip, deflate"
"accept""*/*"
"connection""keep-alive"
Q
":method""GET"
":scheme""https"
":status""404"
":path""/2021/10/3/1.4.60/2023-10-31T02:50:47+00:000.64"
"strict-transport-security""max-age=31536000"
"content-type""text/html; charset=utf-8"
"content-length""785"
"date""Fri, 05 Jan 2024 16:06:07 GMT"
"server""lighttpd/2.0.0"
P
":method""GET"
":scheme""https"
":path""/2021/10/3/1.4.60/2023-10-31T02:50:47+00:000.64"
"user-agent""python-requests/2.31.0"
"accept-encoding""gzip, deflate"
"accept""*/*"
"connection""keep-alive"
Q
":method""GET"
":scheme""https"
":status""404"
":path""/2021/2/2/1.4.59/2023-10-31T02:50:47+00:000.64"
"strict-transport-security""max-age=31536000"
"content-type""text/html; charset=utf-8"
"content-length""785"
"date""Fri, 05 Jan 2024 16:06:07 GMT"
"server""lighttpd/2.0.0"
P
":method""GET"
":scheme""https"
":path""/2021/2/2/1.4.59/2023-10-31T02:50:47+00:000.64"
"user-agent""python-requests/2.31.0"
"accept-encoding""gzip, deflate"
"accept""*/*"
"connection""keep-alive"
Q
":method""GET"
":scheme""https"
":status""404"
":path""/2020/12/27/1.4.58/2023-10-31T02:50:47+00:000.64"
"strict-transport-security""max-age=31536000"
"content-type""text/html; charset=utf-8"
"content-length""785"
"date""Fri, 05 Jan 2024 16:06:08 GMT"
"server""lighttpd/2.0.0"
P
":method""GET"
":scheme""https"
":path""/2020/12/27/1.4.58/2023-10-31T02:50:47+00:000.64"
"user-agent""python-requests/2.31.0"
"accept-encoding""gzip, deflate"
"accept""*/*"
"connection""keep-alive"
Q
":method""GET"
":scheme""https"
":status""404"
":path""/2020/12/17/1.4.57/2023-10-31T02:50:47+00:000.64"
"strict-transport-security""max-age=31536000"
"content-type""text/html; charset=utf-8"
"content-length""785"
"date""Fri, 05 Jan 2024 16:06:09 GMT"
"server""lighttpd/2.0.0"
P
":method""GET"
":scheme""https"
":path""/2020/12/17/1.4.57/2023-10-31T02:50:47+00:000.64"
"user-agent""python-requests/2.31.0"
"accept-encoding""gzip, deflate"
"accept""*/*"
"connection""keep-alive"
Q
":method""GET"
":scheme""https"
":status""404"
":path""/2020/11/29/1.4.56/2023-10-31T02:50:47+00:000.64"
"strict-transport-security""max-age=31536000"
"content-type""text/html; charset=utf-8"
"content-length""785"
"date""Fri, 05 Jan 2024 16:06:10 GMT"
"server""lighttpd/2.0.0"
P
":method""GET"
":scheme""https"
":path""/2020/11/29/1.4.56/2023-10-31T02:50:47+00:000.64"
"user-agent""python-requests/2.31.0"
"accept-encoding""gzip, deflate"
"accept""*/*"
"connection""keep-alive"
Q
":method""GET"
":scheme""https"
":status""404"
":path""/2020/1/31/1.4.55/2023-10-31T02:50:47+00:000.64"
"strict-transport-security""max-age=31536000"
"content-type""text/html; charset=utf-8"
"content-length""785"
"date""Fri, 05 Jan 2024 16:06:10 GMT"
"server""lighttpd/2.0.0"
P
":method""GET"
":scheme""https"
":path""/2020/1/31/1.4.55/2023-10-31T02:50:47+00:000.64"
"user-agent""python-requests/2.31.0"
"accept-encoding""gzip, deflate"
"accept""*/*"
"connection""keep-alive"
Q
":method""GET"
":scheme""https"
":status""404"
":path""/2019/5/27/1.4.54/2023-10-31T02:50:47+00:000.64"
"strict-transport-security""max-age=31536000"
"content-type""text/html; charset=utf-8"
"content-length""785"
"date""Fri, 05 Jan 2024 16:06:11 GMT"
"server""lighttpd/2.0.0"
P
":method""GET"
":scheme""https"
":path""/2019/5/27/1.4.54/2023-10-31T02:50:47+00:000.64"
"user-agent""python-requests/2.31.0"
"accept-encoding""gzip, deflate"
"accept""*/*"
"connection""keep-alive"
Q
":method""GET"
":scheme""https"
":status""404"
":path""/2019/1/27/1.4.53/2023-10-31T02:50:47+00:000.64"
"strict-transport-security""max-age=31536000"
"content-type""text/html; charset=utf-8"
"content-length""785"
"date""Fri, 05 Jan 2024 16:06:12 GMT"
"server""lighttpd/2.0.0"
P
":method""GET"
":scheme""https"
":path""/2019/1/27/1.4.53/2023-10-31T02:50:47+00:000.64"
"user-agent""python-requests/2.31.0"
"accept-encoding""gzip, deflate"
"accept""*/*"
"connection""keep-alive"
Q
":method""GET"
":scheme""https"
":status""404"
":path""/2018/11/28/1.4.52/2023-10-31T02:50:47+00:000.64"
"strict-transport-security""max-age=31536000"
"content-type""text/html; charset=utf-8"
"content-length""785"
"date""Fri, 05 Jan 2024 16:06:13 GMT"
"server""lighttpd/2.0.0"
P
":method""GET"
":scheme""https"
":path""/2018/11/28/1.4.52/2023-10-31T02:50:47+00:000.64"
"user-agent""python-requests/2.31.0"
"accept-encoding""gzip, deflate"
"accept""*/*"
"connection""keep-alive"
Q
":method""GET"
":scheme""https"
":status""404"
":path""/2018/10/14/1.4.51/2023-10-31T02:50:47+00:000.64"
"strict-transport-security""max-age=31536000"
"content-type""text/html; charset=utf-8"
"content-length""785"
"date""Fri, 05 Jan 2024 16:06:13 GMT"
"server""lighttpd/2.0.0"
P
":method""GET"
":scheme""https"
":path""/2018/10/14/1.4.51/2023-10-31T02:50:47+00:000.64"
"user-agent""python-requests/2.31.0"
"accept-encoding""gzip, deflate"
"accept""*/*"
"connection""keep-alive"
Q
":method""GET"
":scheme""https"
":status""404"
":path""/2018/8/13/1.4.50/2023-10-31T02:50:47+00:000.64"
"strict-transport-security""max-age=31536000"
"content-type""text/html; charset=utf-8"
"content-length""785"
"date""Fri, 05 Jan 2024 16:06:14 GMT"
"server""lighttpd/2.0.0"
P
":method""GET"
":scheme""https"
":path""/2018/8/13/1.4.50/2023-10-31T02:50:47+00:000.64"
"user-agent""python-requests/2.31.0"
"accept-encoding""gzip, deflate"
"accept""*/*"
"connection""keep-alive"
Q
":method""GET"
":scheme""https"
":status""404"
":path""/2018/3/11/1.4.49/2023-10-31T02:50:47+00:000.64"
"strict-transport-security""max-age=31536000"
"content-type""text/html; charset=utf-8"
"content-length""785"
"date""Fri, 05 Jan 2024 16:06:15 GMT"
"server""lighttpd/2.0.0"
P
":method""GET"
":scheme""https"
":path""/2018/3/11/1.4.49/2023-10-31T02:50:47+00:000.64"
"user-agent""python-requests/2.31.0"
"accept-encoding""gzip, deflate"
"accept""*/*"
"connection""keep-alive"
Q
":method""GET"
":scheme""https"
":status""404"
":path""/2017/11/11/1.4.48/2023-10-31T02:50:47+00:000.64"
"strict-transport-security""max-age=31536000"
"content-type""text/html; charset=utf-8"
"content-length""785"
"date""Fri, 05 Jan 2024 16:06:15 GMT"
"server""lighttpd/2.0.0"
P
":method""GET"
":scheme""https"
":path""/2017/11/11/1.4.48/2023-10-31T02:50:47+00:000.64"
"user-agent""python-requests/2.31.0"
"accept-encoding""gzip, deflate"
"accept""*/*"
"connection""keep-alive"
Q
":method""GET"
":scheme""https"
":status""404"
":path""/2017/10/22/1.4.47/2023-10-31T02:50:47+00:000.64"
"strict-transport-security""max-age=31536000"
"content-type""text/html; charset=utf-8"
"content-length""785"
"date""Fri, 05 Jan 2024 16:06:16 GMT"
"server""lighttpd/2.0.0"
P
":method""GET"
":scheme""https"
":path""/2017/10/22/1.4.47/2023-10-31T02:50:47+00:000.64"
"user-agent""python-requests/2.31.0"
"accept-encoding""gzip, deflate"
"accept""*/*"
"connection""keep-alive"
Q
":method""GET"
":scheme""https"
":status""404"
":path""/2017/10/21/1.4.46/2023-10-31T02:50:47+00:000.64"
"strict-transport-security""max-age=31536000"
"content-type""text/html; charset=utf-8"
"content-length""785"
"date""Fri, 05 Jan 2024 16:06:17 GMT"
"server""lighttpd/2.0.0"
P
":method""GET"
":scheme""https"
":path""/2017/10/21/1.4.46/2023-10-31T02:50:47+00:000.64"
"user-agent""python-requests/2.31.0"
"accept-encoding""gzip, deflate"
"accept""*/*"
"connection""keep-alive"
Q
":method""GET"
":scheme""https"
":status""404"
":path""/2017/1/14/1.4.45/2023-10-31T02:50:47+00:000.64"
"strict-transport-security""max-age=31536000"
"content-type""text/html; charset=utf-8"
"content-length""785"
"date""Fri, 05 Jan 2024 16:06:17 GMT"
"server""lighttpd/2.0.0"
P
":method""GET"
":scheme""https"
":path""/2017/1/14/1.4.45/2023-10-31T02:50:47+00:000.64"
"user-agent""python-requests/2.31.0"
"accept-encoding""gzip, deflate"
"accept""*/*"
"connection""keep-alive"
Q
":method""GET"
":scheme""https"
":status""404"
":path""/2016/12/24/1.4.44/2023-10-31T02:50:47+00:000.64"
"strict-transport-security""max-age=31536000"
"content-type""text/html; charset=utf-8"
"content-length""785"
"date""Fri, 05 Jan 2024 16:06:18 GMT"
"server""lighttpd/2.0.0"
P
":method""GET"
":scheme""https"
":path""/2016/12/24/1.4.44/2023-10-31T02:50:47+00:000.64"
"user-agent""python-requests/2.31.0"
"accept-encoding""gzip, deflate"
"accept""*/*"
"connection""keep-alive"
Q
":method""GET"
":scheme""https"
":status""404"
":path""/story/index.html2023-10-31T02:50:47+00:000.64"
"strict-transport-security""max-age=31536000"
"content-type""text/html; charset=utf-8"
"content-length""785"
"date""Fri, 05 Jan 2024 16:06:19 GMT"
"server""lighttpd/2.0.0"
P
":method""GET"
":scheme""https"
":path""/story/index.html2023-10-31T02:50:47+00:000.64"
"user-agent""python-requests/2.31.0"
"accept-encoding""gzip, deflate"
"accept""*/*"
"connection""keep-alive"
Q
":method""GET"
":scheme""https"
":status""404"
":path""/story/page2.html2023-10-31T02:50:47+00:000.64"
"strict-transport-security""max-age=31536000"
"content-type""text/html; charset=utf-8"
"content-length""785"
"date""Fri, 05 Jan 2024 16:06:20 GMT"
"server""lighttpd/2.0.0"
P
":method""GET"
":scheme""https"
":path""/story/page2.html2023-10-31T02:50:47+00:000.64"
"user-agent""python-requests/2.31.0"
"accept-encoding""gzip, deflate"
"accept""*/*"
"connection""keep-alive"
Q
":method""GET"
":scheme""https"
":status""404"
":path""/2007/4/4/powered-by-lighttpd/2023-10-31T02:50:47+00:000.64"
"strict-transport-security""max-age=31536000"
"content-type""text/html; charset=utf-8"
"content-length""785"
"date""Fri, 05 Jan 2024 16:06:20 GMT"
"server""lighttpd/2.0.0"
P
":method""GET"
":scheme""https"
":path""/2007/4/4/powered-by-lighttpd/2023-10-31T02:50:47+00:000.64"
"user-agent""python-requests/2.31.0"
"accept-encoding""gzip, deflate"
"accept""*/*"
"connection""keep-alive"
Q
":method""GET"
":scheme""https"
":status""404"
":path""/2007/2/2/lighttpd/2023-10-31T02:50:47+00:000.64"
"strict-transport-security""max-age=31536000"
"content-type""text/html; charset=utf-8"
"content-length""785"
"date""Fri, 05 Jan 2024 16:06:21 GMT"
"server""lighttpd/2.0.0"
P
":method""GET"
":scheme""https"
":path""/2007/2/2/lighttpd/2023-10-31T02:50:47+00:000.64"
"user-agent""python-requests/2.31.0"
"accept-encoding""gzip, deflate"
"accept""*/*"
"connection""keep-alive"
Q
":method""GET"
":scheme""https"
":status""404"
":path""/2007/1/30/the-server/2023-10-31T02:50:47+00:000.64"
"strict-transport-security""max-age=31536000"
"content-type""text/html; charset=utf-8"
"content-length""785"
"date""Fri, 05 Jan 2024 16:06:22 GMT"
"server""lighttpd/2.0.0"
P
":method""GET"
":scheme""https"
":path""/2007/1/30/the-server/2023-10-31T02:50:47+00:000.64"
"user-agent""python-requests/2.31.0"
"accept-encoding""gzip, deflate"
"accept""*/*"
"connection""keep-alive"
Q
":method""GET"
":scheme""https"
":status""404"
":path""/2007/2/2/raw-io-performance/2023-10-31T02:50:47+00:000.51"
"strict-transport-security""max-age=31536000"
"content-type""text/html; charset=utf-8"
"content-length""785"
"date""Fri, 05 Jan 2024 16:06:23 GMT"
"server""lighttpd/2.0.0"
P
":method""GET"
":scheme""https"
":path""/2007/2/2/raw-io-performance/2023-10-31T02:50:47+00:000.51"
"user-agent""python-requests/2.31.0"
"accept-encoding""gzip, deflate"
"accept""*/*"
"connection""keep-alive"
Q
":method""GET"
":scheme""https"
":status""404"
":path""/2016/10/31/1.4.43/2023-10-31T02:50:47+00:000.51"
"strict-transport-security""max-age=31536000"
"content-type""text/html; charset=utf-8"
"content-length""785"
"date""Fri, 05 Jan 2024 16:06:23 GMT"
"server""lighttpd/2.0.0"
P
":method""GET"
":scheme""https"
":path""/2016/10/31/1.4.43/2023-10-31T02:50:47+00:000.51"
"user-agent""python-requests/2.31.0"
"accept-encoding""gzip, deflate"
"accept""*/*"
"connection""keep-alive"
Q
":method""GET"
":scheme""https"
":status""404"
":path""/2016/10/16/1.4.42/2023-10-31T02:50:47+00:000.51"
"strict-transport-security""max-age=31536000"
"content-type""text/html; charset=utf-8"
"content-length""785"
"date""Fri, 05 Jan 2024 16:06:24 GMT"
"server""lighttpd/2.0.0"
P
":method""GET"
":scheme""https"
":path""/2016/10/16/1.4.42/2023-10-31T02:50:47+00:000.51"
"user-agent""python-requests/2.31.0"
"accept-encoding""gzip, deflate"
"accept""*/*"
"connection""keep-alive"
Q
":method""GET"
":scheme""https"
":status""404"
":path""/2016/7/31/1.4.41/2023-10-31T02:50:47+00:000.51"
"strict-transport-security""max-age=31536000"
"content-type""text/html; charset=utf-8"
"content-length""785"
"date""Fri, 05 Jan 2024 16:06:25 GMT"
"server""lighttpd/2.0.0"
P
":method""GET"
":scheme""https"
":path""/2016/7/31/1.4.41/2023-10-31T02:50:47+00:000.51"
"user-agent""python-requests/2.31.0"
"accept-encoding""gzip, deflate"
"accept""*/*"
"connection""keep-alive"
Q
":method""GET"
":scheme""https"
":status""404"
":path""/2016/7/16/1.4.40/2023-10-31T02:50:47+00:000.51"
"strict-transport-security""max-age=31536000"
"content-type""text/html; charset=utf-8"
"content-length""785"
"date""Fri, 05 Jan 2024 16:06:25 GMT"
"server""lighttpd/2.0.0"
P
":method""GET"
":scheme""https"
":path""/2016/7/16/1.4.40/2023-10-31T02:50:47+00:000.51"
"user-agent""python-requests/2.31.0"
"accept-encoding""gzip, deflate"
"accept""*/*"
"connection""keep-alive"
Q
":method""GET"
":scheme""https"
":status""404"
":path""/2016/1/2/1.4.39/2023-10-31T02:50:47+00:000.51"
"strict-transport-security""max-age=31536000"
"content-type""text/html; charset=utf-8"
"content-length""785"
"date""Fri, 05 Jan 2024 16:06:26 GMT"
"server""lighttpd/2.0.0"
P
":method""GET"
":scheme""https"
":path""/2016/1/2/1.4.39/2023-10-31T02:50:47+00:000.51"
"user-agent""python-requests/2.31.0"
"accept-encoding""gzip, deflate"
"accept""*/*"
"connection""keep-alive"
Q
":method""GET"
":scheme""https"
":status""404"
":path""/2015/12/5/1.4.38/2023-10-31T02:50:47+00:000.51"
"strict-transport-security""max-age=31536000"
"content-type""text/html; charset=utf-8"
"content-length""785"
"date""Fri, 05 Jan 2024 16:06:27 GMT"
"server""lighttpd/2.0.0"
P
":method""GET"
":scheme""https"
":path""/2015/12/5/1.4.38/2023-10-31T02:50:47+00:000.51"
"user-agent""python-requests/2.31.0"
"accept-encoding""gzip, deflate"
"accept""*/*"
"connection""keep-alive"
Q
":method""GET"
":scheme""https"
":status""404"
":path""/2015/8/30/1.4.37/2023-10-31T02:50:47+00:000.51"
"strict-transport-security""max-age=31536000"
"content-type""text/html; charset=utf-8"
"content-length""785"
"date""Fri, 05 Jan 2024 16:06:28 GMT"
"server""lighttpd/2.0.0"
P
":method""GET"
":scheme""https"
":path""/2015/8/30/1.4.37/2023-10-31T02:50:47+00:000.51"
"user-agent""python-requests/2.31.0"
"accept-encoding""gzip, deflate"
"accept""*/*"
"connection""keep-alive"
Q
":method""GET"
":scheme""https"
":status""404"
":path""/2015/7/26/1.4.36/2023-10-31T02:50:47+00:000.51"
"strict-transport-security""max-age=31536000"
"content-type""text/html; charset=utf-8"
"content-length""785"
"date""Fri, 05 Jan 2024 16:06:28 GMT"
"server""lighttpd/2.0.0"
P
":method""GET"
":scheme""https"
":path""/2015/7/26/1.4.36/2023-10-31T02:50:47+00:000.51"
"user-agent""python-requests/2.31.0"
"accept-encoding""gzip, deflate"
"accept""*/*"
"connection""keep-alive"
Q
":method""GET"
":scheme""https"
":status""404"
":path""/2014/3/12/1.4.35/2023-10-31T02:50:47+00:000.51"
"strict-transport-security""max-age=31536000"
"content-type""text/html; charset=utf-8"
"content-length""785"
"date""Fri, 05 Jan 2024 16:06:29 GMT"
"server""lighttpd/2.0.0"
P
":method""GET"
":scheme""https"
":path""/2014/3/12/1.4.35/2023-10-31T02:50:47+00:000.51"
"user-agent""python-requests/2.31.0"
"accept-encoding""gzip, deflate"
"accept""*/*"
"connection""keep-alive"
Q
":method""GET"
":scheme""https"
":status""404"
":path""/2014/1/20/1-4-34/2023-10-31T02:50:47+00:000.51"
"strict-transport-security""max-age=31536000"
"content-type""text/html; charset=utf-8"
"content-length""785"
"date""Fri, 05 Jan 2024 16:06:30 GMT"
"server""lighttpd/2.0.0"
P
":method""GET"
":scheme""https"
":path""/2014/1/20/1-4-34/2023-10-31T02:50:47+00:000.51"
"user-agent""python-requests/2.31.0"
"accept-encoding""gzip, deflate"
"accept""*/*"
"connection""keep-alive"
Q
":method""GET"
":scheme""https"
":status""404"
":path""/2013/9/27/1-4-33/2023-10-31T02:50:47+00:000.51"
"strict-transport-security""max-age=31536000"
"content-type""text/html; charset=utf-8"
"content-length""785"
"date""Fri, 05 Jan 2024 16:06:30 GMT"
"server""lighttpd/2.0.0"
P
":method""GET"
":scheme""https"
":path""/2013/9/27/1-4-33/2023-10-31T02:50:47+00:000.51"
"user-agent""python-requests/2.31.0"
"accept-encoding""gzip, deflate"
"accept""*/*"
"connection""keep-alive"
Q
":method""GET"
":scheme""https"
":status""404"
":path""/2012/11/21/1-4-32/2023-10-31T02:50:47+00:000.51"
"strict-transport-security""max-age=31536000"
"content-type""text/html; charset=utf-8"
"content-length""785"
"date""Fri, 05 Jan 2024 16:06:31 GMT"
"server""lighttpd/2.0.0"
P
":method""GET"
":scheme""https"
":path""/2012/11/21/1-4-32/2023-10-31T02:50:47+00:000.51"
"user-agent""python-requests/2.31.0"
"accept-encoding""gzip, deflate"
"accept""*/*"
"connection""keep-alive"
Q
":method""GET"
":scheme""https"
":status""404"
":path""/2012/5/31/1-4-31-diablo-servers-are-down-again-back-to-work/2023-10-31T02:50:47+00:000.51"
"strict-transport-security""max-age=31536000"
"content-type""text/html; charset=utf-8"
"content-length""785"
"date""Fri, 05 Jan 2024 16:06:32 GMT"
"server""lighttpd/2.0.0"
P
":method""GET"
":scheme""https"
":path""/2012/5/31/1-4-31-diablo-servers-are-down-again-back-to-work/2023-10-31T02:50:47+00:000.51"
"user-agent""python-requests/2.31.0"
"accept-encoding""gzip, deflate"
"accept""*/*"
"connection""keep-alive"
Q
":method""GET"
":scheme""https"
":status""404"
":path""/2011/12/18/1-4-30-faster-than-santa-your-first-present-this-year/2023-10-31T02:50:47+00:000.51"
"strict-transport-security""max-age=31536000"
"content-type""text/html; charset=utf-8"
"content-length""785"
"date""Fri, 05 Jan 2024 16:06:32 GMT"
"server""lighttpd/2.0.0"
P
":method""GET"
":scheme""https"
":path""/2011/12/18/1-4-30-faster-than-santa-your-first-present-this-year/2023-10-31T02:50:47+00:000.51"
"user-agent""python-requests/2.31.0"
"accept-encoding""gzip, deflate"
"accept""*/*"
"connection""keep-alive"
Q
":method""GET"
":scheme""https"
":status""404"
":path""/2011/7/3/1-4-29/2023-10-31T02:50:47+00:000.51"
"strict-transport-security""max-age=31536000"
"content-type""text/html; charset=utf-8"
"content-length""785"
"date""Fri, 05 Jan 2024 16:06:33 GMT"
"server""lighttpd/2.0.0"
P
":method""GET"
":scheme""https"
":path""/2011/7/3/1-4-29/2023-10-31T02:50:47+00:000.51"
"user-agent""python-requests/2.31.0"
"accept-encoding""gzip, deflate"
"accept""*/*"
"connection""keep-alive"
Q
":method""GET"
":scheme""https"
":status""404"
":path""/2010/8/22/1-4-28/2023-10-31T02:50:47+00:000.51"
"strict-transport-security""max-age=31536000"
"content-type""text/html; charset=utf-8"
"content-length""785"
"date""Fri, 05 Jan 2024 16:06:34 GMT"
"server""lighttpd/2.0.0"
P
":method""GET"
":scheme""https"
":path""/2010/8/22/1-4-28/2023-10-31T02:50:47+00:000.51"
"user-agent""python-requests/2.31.0"
"accept-encoding""gzip, deflate"
"accept""*/*"
"connection""keep-alive"
Q
":method""GET"
":scheme""https"
":status""404"
":path""/2010/8/13/1-4-27-p-neq-np/2023-10-31T02:50:47+00:000.51"
"strict-transport-security""max-age=31536000"
"content-type""text/html; charset=utf-8"
"content-length""785"
"date""Fri, 05 Jan 2024 16:06:34 GMT"
"server""lighttpd/2.0.0"
P
":method""GET"
":scheme""https"
":path""/2010/8/13/1-4-27-p-neq-np/2023-10-31T02:50:47+00:000.51"
"user-agent""python-requests/2.31.0"
"accept-encoding""gzip, deflate"
"accept""*/*"
"connection""keep-alive"
Q
":method""GET"
":scheme""https"
":status""404"
":path""/2010/2/7/1-4-26-chinese-dragon/2023-10-31T02:50:47+00:000.51"
"strict-transport-security""max-age=31536000"
"content-type""text/html; charset=utf-8"
"content-length""785"
"date""Fri, 05 Jan 2024 16:06:35 GMT"
"server""lighttpd/2.0.0"
P
":method""GET"
":scheme""https"
":path""/2010/2/7/1-4-26-chinese-dragon/2023-10-31T02:50:47+00:000.51"
"user-agent""python-requests/2.31.0"
"accept-encoding""gzip, deflate"
"accept""*/*"
"connection""keep-alive"
Q
":method""GET"
":scheme""https"
":status""404"
":path""/2010/2/1/security-announce-slow-request-dos-oom-attack/2023-10-31T02:50:47+00:000.51"
"strict-transport-security""max-age=31536000"
"content-type""text/html; charset=utf-8"
"content-length""785"
"date""Fri, 05 Jan 2024 16:06:36 GMT"
"server""lighttpd/2.0.0"
P
":method""GET"
":scheme""https"
":path""/2010/2/1/security-announce-slow-request-dos-oom-attack/2023-10-31T02:50:47+00:000.51"
"user-agent""python-requests/2.31.0"
"accept-encoding""gzip, deflate"
"accept""*/*"
"connection""keep-alive"
Q
":method""GET"
":scheme""https"
":status""404"
":path""/2009/11/21/1-4-25-the-slogan-is-a-lie/2023-10-31T02:50:47+00:000.51"
"strict-transport-security""max-age=31536000"
"content-type""text/html; charset=utf-8"
"content-length""785"
"date""Fri, 05 Jan 2024 16:06:37 GMT"
"server""lighttpd/2.0.0"
P
":method""GET"
":scheme""https"
":path""/2009/11/21/1-4-25-the-slogan-is-a-lie/2023-10-31T02:50:47+00:000.51"
"user-agent""python-requests/2.31.0"
"accept-encoding""gzip, deflate"
"accept""*/*"
"connection""keep-alive"
Q
":method""GET"
":scheme""https"
":status""404"
":path""/2009/10/25/1-4-24-now-with-tls-sni-and-money-back-guarantee/2023-10-31T02:50:47+00:000.51"
"strict-transport-security""max-age=31536000"
"content-type""text/html; charset=utf-8"
"content-length""785"
"date""Fri, 05 Jan 2024 16:06:37 GMT"
"server""lighttpd/2.0.0"
P
":method""GET"
":scheme""https"
":path""/2009/10/25/1-4-24-now-with-tls-sni-and-money-back-guarantee/2023-10-31T02:50:47+00:000.51"
"user-agent""python-requests/2.31.0"
"accept-encoding""gzip, deflate"
"accept""*/*"
"connection""keep-alive"
Q
":method""GET"
":scheme""https"
":status""404"
":path""/2009/6/19/1-4-23-leaving-the-nest/2023-10-31T02:50:47+00:000.51"
"strict-transport-security""max-age=31536000"
"content-type""text/html; charset=utf-8"
"content-length""785"
"date""Fri, 05 Jan 2024 16:06:38 GMT"
"server""lighttpd/2.0.0"
P
":method""GET"
":scheme""https"
":path""/2009/6/19/1-4-23-leaving-the-nest/2023-10-31T02:50:47+00:000.51"
"user-agent""python-requests/2.31.0"
"accept-encoding""gzip, deflate"
"accept""*/*"
"connection""keep-alive"
Q
":method""GET"
":scheme""https"
":status""404"
":path""/2009/3/7/1-4-22-echoes/2023-10-31T02:50:47+00:000.51"
"strict-transport-security""max-age=31536000"
"content-type""text/html; charset=utf-8"
"content-length""785"
"date""Fri, 05 Jan 2024 16:06:39 GMT"
"server""lighttpd/2.0.0"
P
":method""GET"
":scheme""https"
":path""/2009/3/7/1-4-22-echoes/2023-10-31T02:50:47+00:000.51"
"user-agent""python-requests/2.31.0"
"accept-encoding""gzip, deflate"
"accept""*/*"
"connection""keep-alive"
Q
":method""GET"
":scheme""https"
":status""404"
":path""/2009/2/28/spawn-fcgi-1-6-0/2023-10-31T02:50:47+00:000.51"
"strict-transport-security""max-age=31536000"
"content-type""text/html; charset=utf-8"
"content-length""785"
"date""Fri, 05 Jan 2024 16:06:39 GMT"
"server""lighttpd/2.0.0"
P
":method""GET"
":scheme""https"
":path""/2009/2/28/spawn-fcgi-1-6-0/2023-10-31T02:50:47+00:000.51"
"user-agent""python-requests/2.31.0"
"accept-encoding""gzip, deflate"
"accept""*/*"
"connection""keep-alive"
Q
":method""GET"
":scheme""https"
":status""404"
":path""/2009/2/16/1-4-21-yes-we-can-do-another-release/2023-10-31T02:50:47+00:000.51"
"strict-transport-security""max-age=31536000"
"content-type""text/html; charset=utf-8"
"content-length""785"
"date""Fri, 05 Jan 2024 16:06:40 GMT"
"server""lighttpd/2.0.0"
P
":method""GET"
":scheme""https"
":path""/2009/2/16/1-4-21-yes-we-can-do-another-release/2023-10-31T02:50:47+00:000.51"
"user-agent""python-requests/2.31.0"
"accept-encoding""gzip, deflate"
"accept""*/*"
"connection""keep-alive"
Q
":method""GET"
":scheme""https"
":status""404"
":path""/2008/9/30/1-4-20-otherwise-the-terrorists-win/2023-10-31T02:50:47+00:000.51"
"strict-transport-security""max-age=31536000"
"content-type""text/html; charset=utf-8"
"content-length""785"
"date""Fri, 05 Jan 2024 16:06:41 GMT"
"server""lighttpd/2.0.0"
P
":method""GET"
":scheme""https"
":path""/2008/9/30/1-4-20-otherwise-the-terrorists-win/2023-10-31T02:50:47+00:000.51"
"user-agent""python-requests/2.31.0"
"accept-encoding""gzip, deflate"
"accept""*/*"
"connection""keep-alive"
Q
":method""GET"
":scheme""https"
":status""404"
":path""/2008/3/10/1-4-19-made-in-germany/2023-10-31T02:50:47+00:000.51"
"strict-transport-security""max-age=31536000"
"content-type""text/html; charset=utf-8"
"content-length""785"
"date""Fri, 05 Jan 2024 16:06:42 GMT"
"server""lighttpd/2.0.0"
P
":method""GET"
":scheme""https"
":path""/2008/3/10/1-4-19-made-in-germany/2023-10-31T02:50:47+00:000.51"
"user-agent""python-requests/2.31.0"
"accept-encoding""gzip, deflate"
"accept""*/*"
"connection""keep-alive"
Q
":method""GET"
":scheme""https"
":status""404"
":path""/2007/9/9/1-4-18-speeding-up-a-bit/2023-10-31T02:50:47+00:000.51"
"strict-transport-security""max-age=31536000"
"content-type""text/html; charset=utf-8"
"content-length""785"
"date""Fri, 05 Jan 2024 16:06:42 GMT"
"server""lighttpd/2.0.0"
P
":method""GET"
":scheme""https"
":path""/2007/9/9/1-4-18-speeding-up-a-bit/2023-10-31T02:50:47+00:000.51"
"user-agent""python-requests/2.31.0"
"accept-encoding""gzip, deflate"
"accept""*/*"
"connection""keep-alive"
Q
":method""GET"
":scheme""https"
":status""404"
":path""/2007/8/29/1-4-17-for-the-sake-of-the-server-error-handler-404/2023-10-31T02:50:47+00:000.51"
"strict-transport-security""max-age=31536000"
"content-type""text/html; charset=utf-8"
"content-length""785"
"date""Fri, 05 Jan 2024 16:06:43 GMT"
"server""lighttpd/2.0.0"
P
":method""GET"
":scheme""https"
":path""/2007/8/29/1-4-17-for-the-sake-of-the-server-error-handler-404/2023-10-31T02:50:47+00:000.51"
"user-agent""python-requests/2.31.0"
"accept-encoding""gzip, deflate"
"accept""*/*"
"connection""keep-alive"
Q
":method""GET"
":scheme""https"
":status""404"
":path""/2007/7/24/1-4-16-let-s-ship-it/2023-10-31T02:50:47+00:000.51"
"strict-transport-security""max-age=31536000"
"content-type""text/html; charset=utf-8"
"content-length""785"
"date""Fri, 05 Jan 2024 16:06:44 GMT"
"server""lighttpd/2.0.0"
P
":method""GET"
":scheme""https"
":path""/2007/7/24/1-4-16-let-s-ship-it/2023-10-31T02:50:47+00:000.51"
"user-agent""python-requests/2.31.0"
"accept-encoding""gzip, deflate"
"accept""*/*"
"connection""keep-alive"
Q
":method""GET"
":scheme""https"
":status""404"
":path""/2007/4/13/lighttpd-1-4-15-the-following-traditions-release/2023-10-31T02:50:47+00:000.51"
"strict-transport-security""max-age=31536000"
"content-type""text/html; charset=utf-8"
"content-length""785"
"date""Fri, 05 Jan 2024 16:06:44 GMT"
"server""lighttpd/2.0.0"
P
":method""GET"
":scheme""https"
":path""/2007/4/13/lighttpd-1-4-15-the-following-traditions-release/2023-10-31T02:50:47+00:000.51"
"user-agent""python-requests/2.31.0"
"accept-encoding""gzip, deflate"
"accept""*/*"
"connection""keep-alive"
Q
":method""GET"
":scheme""https"
":status""404"
":path""/2007/4/13/lighttpd-1-4-14-released/2023-10-31T02:50:47+00:000.51"
"strict-transport-security""max-age=31536000"
"content-type""text/html; charset=utf-8"
"content-length""785"
"date""Fri, 05 Jan 2024 16:06:45 GMT"
"server""lighttpd/2.0.0"
P
":method""GET"
":scheme""https"
":path""/2007/4/13/lighttpd-1-4-14-released/2023-10-31T02:50:47+00:000.51"
"user-agent""python-requests/2.31.0"
"accept-encoding""gzip, deflate"
"accept""*/*"
"connection""keep-alive"
Q
":method""GET"
":scheme""https"
":status""404"
":path""/2007/2/3/lighttpd-1-5-0-pre/2023-10-31T02:50:47+00:000.51"
"strict-transport-security""max-age=31536000"
"content-type""text/html; charset=utf-8"
"content-length""785"
"date""Fri, 05 Jan 2024 16:06:46 GMT"
"server""lighttpd/2.0.0"
P
":method""GET"
":scheme""https"
":path""/2007/2/3/lighttpd-1-5-0-pre/2023-10-31T02:50:47+00:000.51"
"user-agent""python-requests/2.31.0"
"accept-encoding""gzip, deflate"
"accept""*/*"
"connection""keep-alive"
Q
":method""GET"
":scheme""https"
":status""404"
":path""/2007/1/30/lighttpd-1-4-13/2023-10-31T02:50:47+00:000.51"
"strict-transport-security""max-age=31536000"
"content-type""text/html; charset=utf-8"
"content-length""785"
"date""Fri, 05 Jan 2024 16:06:46 GMT"
"server""lighttpd/2.0.0"
P
":method""GET"
":scheme""https"
":path""/2007/1/30/lighttpd-1-4-13/2023-10-31T02:50:47+00:000.51"
"user-agent""python-requests/2.31.0"
"accept-encoding""gzip, deflate"
"accept""*/*"
"connection""keep-alive"
Q
":method""GET"
":scheme""https"
":status""404"
":path""/2007/1/30/the-logo/2023-10-31T02:50:47+00:000.51"
"strict-transport-security""max-age=31536000"
"content-type""text/html; charset=utf-8"
"content-length""785"
"date""Fri, 05 Jan 2024 16:06:47 GMT"
"server""lighttpd/2.0.0"
P
":method""GET"
":scheme""https"
":path""/2007/1/30/the-logo/2023-10-31T02:50:47+00:000.51"
"user-agent""python-requests/2.31.0"
"accept-encoding""gzip, deflate"
"accept""*/*"
"connection""keep-alive"
